EESchema Schematic File Version 4
EELAYER 30 0
EELAYER END
$Descr A3 16535 11693
encoding utf-8
Sheet 1 1
Title "Low Freq LNA"
Date ""
Rev "1.0.2"
Comp ""
Comment1 ""
Comment2 ""
Comment3 ""
Comment4 ""
$EndDescr
$Comp
L Device:C C2
U 1 1 613A8D75
P 2800 2000
F 0 "C2" V 3250 2000 50  0000 C CNN
F 1 "210uF" V 3150 2000 50  0000 C CNN
F 2 "Filmcap:C4AQ_Flat" H 2838 1850 50  0001 C CNN
F 3 "~" H 2800 2000 50  0001 C CNN
F 4 "<1000nA Leakage = 10MOhm" V 3050 2000 50  0000 C CNN "Select"
F 5 "C4AQLEW6210A3BK" V 2950 2000 50  0000 C CNN "Part"
	1    2800 2000
	0    -1   -1   0   
$EndComp
$Comp
L Device:R R2
U 1 1 613A90A6
P 3000 2950
F 0 "R2" H 2930 2859 50  0000 R CNN
F 1 "2k" H 2930 2950 50  0000 R CNN
F 2 "Resistor_SMD:R_1206_3216Metric_Pad1.30x1.75mm_HandSolder" V 2930 2950 50  0001 C CNN
F 3 "~" H 3000 2950 50  0001 C CNN
F 4 "Vn=5.7nV" H 2930 3041 50  0000 R CNN "Vn"
F 5 "RG3216P-2001-B-T1" H 3000 2950 50  0001 C CNN "Part"
	1    3000 2950
	-1   0    0    1   
$EndComp
$Comp
L Connector:Conn_Coaxial J1
U 1 1 613A9CF8
P 750 2000
F 0 "J1" H 800 2250 50  0000 C CNN
F 1 "IN" H 800 2150 50  0000 C CNN
F 2 "Connectors:Molex_0731310240" H 750 2000 50  0001 C CNN
F 3 " ~" H 750 2000 50  0001 C CNN
	1    750  2000
	-1   0    0    -1  
$EndComp
$Comp
L power:GND #PWR01
U 1 1 613AA725
P 750 2200
F 0 "#PWR01" H 750 1950 50  0001 C CNN
F 1 "GND" H 755 2027 50  0000 C CNN
F 2 "" H 750 2200 50  0001 C CNN
F 3 "" H 750 2200 50  0001 C CNN
	1    750  2200
	1    0    0    -1  
$EndComp
$Comp
L Device:C C1
U 1 1 613AECE5
P 2300 2300
F 0 "C1" H 2185 2254 50  0000 R CNN
F 1 "100nF" H 2185 2345 50  0000 R CNN
F 2 "Capacitor_THT:C_Rect_L13.5mm_W4.0mm_P10.00mm_FKS3_FKP3_MKS4" H 2338 2150 50  0001 C CNN
F 3 "~" H 2300 2300 50  0001 C CNN
F 4 "R71MF31004030K" H 2300 2300 50  0001 C CNN "Part"
	1    2300 2300
	-1   0    0    1   
$EndComp
$Comp
L power:GND #PWR03
U 1 1 613AF5E9
P 2300 2450
F 0 "#PWR03" H 2300 2200 50  0001 C CNN
F 1 "GND" H 2305 2277 50  0000 C CNN
F 2 "" H 2300 2450 50  0001 C CNN
F 3 "" H 2300 2450 50  0001 C CNN
	1    2300 2450
	1    0    0    -1  
$EndComp
Wire Wire Line
	2300 2150 2300 2000
Connection ~ 2300 2000
Wire Wire Line
	2300 2000 2650 2000
$Comp
L power:+VDC #PWR021
U 1 1 613B01D4
P 7750 750
F 0 "#PWR021" H 7750 650 50  0001 C CNN
F 1 "+VDC" V 7750 980 50  0000 L CNN
F 2 "" H 7750 750 50  0001 C CNN
F 3 "" H 7750 750 50  0001 C CNN
	1    7750 750 
	0    1    1    0   
$EndComp
$Comp
L Device:Battery_Cell BT1
U 1 1 613B27F1
P 2450 9150
F 0 "BT1" H 2568 9246 50  0000 L CNN
F 1 "Battery_Cell" H 2568 9155 50  0000 L CNN
F 2 "Battery:BatteryHolder_Keystone_1042_1x18650" V 2450 9210 50  0001 C CNN
F 3 "~" V 2450 9210 50  0001 C CNN
	1    2450 9150
	1    0    0    -1  
$EndComp
$Comp
L Device:Battery_Cell BT2
U 1 1 613B33C9
P 2450 9650
F 0 "BT2" H 2568 9746 50  0000 L CNN
F 1 "Battery_Cell" H 2568 9655 50  0000 L CNN
F 2 "Battery:BatteryHolder_Keystone_1042_1x18650" V 2450 9710 50  0001 C CNN
F 3 "~" V 2450 9710 50  0001 C CNN
	1    2450 9650
	1    0    0    -1  
$EndComp
$Comp
L power:GND #PWR08
U 1 1 613B38DD
P 3400 9450
F 0 "#PWR08" H 3400 9200 50  0001 C CNN
F 1 "GND" H 3405 9277 50  0000 C CNN
F 2 "" H 3400 9450 50  0001 C CNN
F 3 "" H 3400 9450 50  0001 C CNN
	1    3400 9450
	1    0    0    -1  
$EndComp
Wire Wire Line
	3400 9450 3400 9350
Wire Wire Line
	3400 9350 2450 9350
Wire Wire Line
	2450 9350 2450 9250
Wire Wire Line
	2450 9350 2450 9450
Connection ~ 2450 9350
$Comp
L power:+VDC #PWR06
U 1 1 613B464A
P 2550 8300
F 0 "#PWR06" H 2550 8200 50  0001 C CNN
F 1 "+VDC" H 2550 8575 50  0000 C CNN
F 2 "" H 2550 8300 50  0001 C CNN
F 3 "" H 2550 8300 50  0001 C CNN
	1    2550 8300
	1    0    0    -1  
$EndComp
$Comp
L power:-VDC #PWR04
U 1 1 613B4F97
P 2350 10350
F 0 "#PWR04" H 2350 10250 50  0001 C CNN
F 1 "-VDC" H 2350 10625 50  0000 C CNN
F 2 "" H 2350 10350 50  0001 C CNN
F 3 "" H 2350 10350 50  0001 C CNN
	1    2350 10350
	-1   0    0    1   
$EndComp
Wire Wire Line
	950  2000 1200 2000
$Comp
L Connector:Conn_Coaxial J2
U 1 1 613B845E
P 14750 2200
F 0 "J2" H 14800 2450 50  0000 C CNN
F 1 "OUT" H 14800 2350 50  0000 C CNN
F 2 "Connectors:Molex_0731310240" H 14750 2200 50  0001 C CNN
F 3 " ~" H 14750 2200 50  0001 C CNN
	1    14750 2200
	1    0    0    -1  
$EndComp
$Comp
L power:GND #PWR031
U 1 1 613B9DB6
P 14750 2400
F 0 "#PWR031" H 14750 2150 50  0001 C CNN
F 1 "GND" H 14755 2227 50  0000 C CNN
F 2 "" H 14750 2400 50  0001 C CNN
F 3 "" H 14750 2400 50  0001 C CNN
	1    14750 2400
	1    0    0    -1  
$EndComp
$Comp
L power:GND #PWR017
U 1 1 613BA43B
P 6000 1650
F 0 "#PWR017" H 6000 1400 50  0001 C CNN
F 1 "GND" V 6005 1522 50  0000 R CNN
F 2 "" H 6000 1650 50  0001 C CNN
F 3 "" H 6000 1650 50  0001 C CNN
	1    6000 1650
	0    -1   -1   0   
$EndComp
$Comp
L power:GND #PWR014
U 1 1 613BB1D0
P 5950 3300
F 0 "#PWR014" H 5950 3050 50  0001 C CNN
F 1 "GND" V 5955 3172 50  0000 R CNN
F 2 "" H 5950 3300 50  0001 C CNN
F 3 "" H 5950 3300 50  0001 C CNN
	1    5950 3300
	0    -1   -1   0   
$EndComp
$Comp
L power:GND #PWR015
U 1 1 613BB3E4
P 5950 3750
F 0 "#PWR015" H 5950 3500 50  0001 C CNN
F 1 "GND" V 5955 3622 50  0000 R CNN
F 2 "" H 5950 3750 50  0001 C CNN
F 3 "" H 5950 3750 50  0001 C CNN
	1    5950 3750
	0    -1   -1   0   
$EndComp
$Comp
L power:-VDC #PWR022
U 1 1 613BE1DB
P 7800 4050
F 0 "#PWR022" H 7800 3950 50  0001 C CNN
F 1 "-VDC" V 7800 4280 50  0000 L CNN
F 2 "" H 7800 4050 50  0001 C CNN
F 3 "" H 7800 4050 50  0001 C CNN
	1    7800 4050
	0    1    1    0   
$EndComp
Wire Wire Line
	5600 2400 5600 3300
Wire Wire Line
	5650 3750 5600 3750
Wire Wire Line
	5650 3300 5600 3300
$Comp
L power:GND #PWR013
U 1 1 613BF0A9
P 5800 2250
F 0 "#PWR013" H 5800 2000 50  0001 C CNN
F 1 "GND" H 5805 2077 50  0000 C CNN
F 2 "" H 5800 2250 50  0001 C CNN
F 3 "" H 5800 2250 50  0001 C CNN
	1    5800 2250
	1    0    0    -1  
$EndComp
$Comp
L Device:R R4
U 1 1 613BF81B
P 5250 3100
F 0 "R4" H 5320 3146 50  0000 L CNN
F 1 "10" H 5320 3055 50  0000 L CNN
F 2 "Resistor_SMD:R_1206_3216Metric_Pad1.30x1.75mm_HandSolder" V 5180 3100 50  0001 C CNN
F 3 "~" H 5250 3100 50  0001 C CNN
	1    5250 3100
	1    0    0    -1  
$EndComp
Wire Wire Line
	5400 2200 5250 2200
Wire Wire Line
	5250 2200 5250 2500
$Comp
L power:GND #PWR012
U 1 1 613C013B
P 5250 3250
F 0 "#PWR012" H 5250 3000 50  0001 C CNN
F 1 "GND" H 5255 3077 50  0000 C CNN
F 2 "" H 5250 3250 50  0001 C CNN
F 3 "" H 5250 3250 50  0001 C CNN
	1    5250 3250
	1    0    0    -1  
$EndComp
$Comp
L Device:R R5
U 1 1 613C05A5
P 6100 2500
F 0 "R5" V 5893 2500 50  0000 C CNN
F 1 "9990" V 5984 2500 50  0000 C CNN
F 2 "Resistor_SMD:R_1206_3216Metric_Pad1.30x1.75mm_HandSolder" V 6030 2500 50  0001 C CNN
F 3 "~" H 6100 2500 50  0001 C CNN
	1    6100 2500
	0    1    1    0   
$EndComp
Wire Wire Line
	5950 2500 5250 2500
Connection ~ 5250 2500
Wire Wire Line
	6000 2100 6550 2100
Wire Wire Line
	6550 2100 6550 2500
Wire Wire Line
	6550 2500 6250 2500
$Comp
L Device:C C7
U 1 1 613C2826
P 6100 2850
F 0 "C7" V 5848 2850 50  0000 C CNN
F 1 "C" V 5939 2850 50  0000 C CNN
F 2 "Capacitor_SMD:C_1206_3216Metric_Pad1.33x1.80mm_HandSolder" H 6138 2700 50  0001 C CNN
F 3 "~" H 6100 2850 50  0001 C CNN
	1    6100 2850
	0    1    1    0   
$EndComp
Wire Wire Line
	5250 2500 5250 2850
Wire Wire Line
	5950 2850 5250 2850
Connection ~ 5250 2850
Wire Wire Line
	5250 2850 5250 2950
Wire Wire Line
	6250 2850 6550 2850
Wire Wire Line
	6550 2850 6550 2500
Connection ~ 6550 2500
$Comp
L power:GND #PWR016
U 1 1 613C4A4F
P 6000 1250
F 0 "#PWR016" H 6000 1000 50  0001 C CNN
F 1 "GND" V 6005 1122 50  0000 R CNN
F 2 "" H 6000 1250 50  0001 C CNN
F 3 "" H 6000 1250 50  0001 C CNN
	1    6000 1250
	0    -1   -1   0   
$EndComp
Wire Wire Line
	5700 1250 5600 1250
Connection ~ 5600 1250
Wire Wire Line
	5600 1250 5600 1650
Wire Wire Line
	5700 1650 5600 1650
Connection ~ 5600 1650
Wire Wire Line
	5600 1650 5600 1800
Text Notes 4500 800  0    50   ~ 0
First Gain Stage\nGain = 1000\nf_max = 16kHz
$Comp
L Device:R R6
U 1 1 613C690E
P 8450 2300
F 0 "R6" H 8520 2391 50  0000 L CNN
F 1 "200k" H 8520 2300 50  0000 L CNN
F 2 "Resistor_SMD:R_1206_3216Metric_Pad1.30x1.75mm_HandSolder" V 8380 2300 50  0001 C CNN
F 3 "~" H 8450 2300 50  0001 C CNN
F 4 "58nV (0.06nV in)" H 8520 2209 50  0000 L CNN "Vn"
	1    8450 2300
	1    0    0    -1  
$EndComp
$Comp
L Device:C C8
U 1 1 613C6ED3
P 8100 2100
F 0 "C8" V 7758 2100 50  0000 C CNN
F 1 "10uF" V 7849 2100 50  0000 C CNN
F 2 "Filmcap:C_Rect_L31.5mm_W22.0mm_P27.50mm_MKS4" H 8138 1950 50  0001 C CNN
F 3 "~" H 8100 2100 50  0001 C CNN
F 4 "> 250 MOhm" V 7940 2100 50  0000 C CNN "Select"
F 5 "C4AQGBU5250P12K" V 8050 2550 50  0000 C CNN "Parts"
	1    8100 2100
	0    1    1    0   
$EndComp
Wire Wire Line
	7200 2100 6550 2100
Connection ~ 6550 2100
Wire Wire Line
	8250 2100 8450 2100
Wire Wire Line
	8450 2100 8450 2150
$Comp
L power:GND #PWR023
U 1 1 613C8008
P 8450 2450
F 0 "#PWR023" H 8450 2200 50  0001 C CNN
F 1 "GND" H 8455 2277 50  0000 C CNN
F 2 "" H 8450 2450 50  0001 C CNN
F 3 "" H 8450 2450 50  0001 C CNN
	1    8450 2450
	1    0    0    -1  
$EndComp
$Comp
L Amplifier_Operational:MCP6L91RT-EOT U2
U 1 1 613C89A6
P 11200 2200
F 0 "U2" H 11350 2300 50  0000 L CNN
F 1 "MCP6V51T-E/OT" H 11250 2100 50  0000 L CNN
F 2 "Package_TO_SOT_SMD:SOT-23-5" H 11200 2200 50  0001 C CNN
F 3 "http://ww1.microchip.com/downloads/en/DeviceDoc/22141b.pdf" H 11200 2400 50  0001 C CNN
	1    11200 2200
	1    0    0    -1  
$EndComp
$Comp
L Device:R R12
U 1 1 613CB81D
P 13600 2200
F 0 "R12" V 13393 2200 50  0000 C CNN
F 1 "50" V 13484 2200 50  0000 C CNN
F 2 "Resistor_SMD:R_1206_3216Metric_Pad1.30x1.75mm_HandSolder" V 13530 2200 50  0001 C CNN
F 3 "~" H 13600 2200 50  0001 C CNN
	1    13600 2200
	0    1    1    0   
$EndComp
$Comp
L Device:C C12
U 1 1 613CDB72
P 11350 1800
F 0 "C12" V 11098 1800 50  0000 C CNN
F 1 "470nF" V 11189 1800 50  0000 C CNN
F 2 "Capacitor_SMD:C_1812_4532Metric" H 11388 1650 50  0001 C CNN
F 3 "https://api.kemet.com/component-edge/download/datasheet/LDECC3180JA5N00.pdf" H 11350 1800 50  0001 C CNN
F 4 "LDECC3180JA5N00" V 11350 1800 50  0001 C CNN "Part"
	1    11350 1800
	0    1    1    0   
$EndComp
$Comp
L power:GND #PWR030
U 1 1 613CDB78
P 11500 1800
F 0 "#PWR030" H 11500 1550 50  0001 C CNN
F 1 "GND" V 11505 1672 50  0000 R CNN
F 2 "" H 11500 1800 50  0001 C CNN
F 3 "" H 11500 1800 50  0001 C CNN
	1    11500 1800
	0    -1   -1   0   
$EndComp
$Comp
L Device:C C11
U 1 1 613CDB7E
P 11350 1400
F 0 "C11" V 11098 1400 50  0000 C CNN
F 1 "1uF" V 11189 1400 50  0000 C CNN
F 2 "Capacitor_SMD:C_2220_5650Metric_Pad1.97x5.40mm_HandSolder" H 11388 1250 50  0001 C CNN
F 3 "https://www.wima.de/wp-content/uploads/media/e_WIMA_SMD_PET.pdf" H 11350 1400 50  0001 C CNN
F 4 "SMDTC04100VA00KR00" V 11350 1400 50  0001 C CNN "Part"
	1    11350 1400
	0    1    1    0   
$EndComp
Wire Wire Line
	11100 1150 11100 1400
$Comp
L power:GND #PWR029
U 1 1 613CDB85
P 11500 1400
F 0 "#PWR029" H 11500 1150 50  0001 C CNN
F 1 "GND" V 11505 1272 50  0000 R CNN
F 2 "" H 11500 1400 50  0001 C CNN
F 3 "" H 11500 1400 50  0001 C CNN
	1    11500 1400
	0    -1   -1   0   
$EndComp
Wire Wire Line
	11200 1400 11100 1400
Connection ~ 11100 1400
Wire Wire Line
	11100 1400 11100 1800
Wire Wire Line
	11200 1800 11100 1800
Connection ~ 11100 1800
Wire Wire Line
	11100 1800 11100 1900
$Comp
L power:GND #PWR027
U 1 1 613CFAD2
P 11450 3600
F 0 "#PWR027" H 11450 3350 50  0001 C CNN
F 1 "GND" V 11455 3472 50  0000 R CNN
F 2 "" H 11450 3600 50  0001 C CNN
F 3 "" H 11450 3600 50  0001 C CNN
	1    11450 3600
	0    -1   -1   0   
$EndComp
Wire Wire Line
	11150 3600 11100 3600
Connection ~ 11100 3600
$Comp
L Device:EMI_Filter_LCL FL6
U 1 1 613D0F35
P 14200 2300
F 0 "FL6" H 14200 2617 50  0000 C CNN
F 1 "NFE61PT472C1H9" H 14200 2526 50  0000 C CNN
F 2 "EMI_Filters:NFE61" V 14200 2300 50  0001 C CNN
F 3 "http://www.murata.com/~/media/webrenewal/support/library/catalog/products/emc/emifil/c31e.ashx?la=en-gb" V 14200 2300 50  0001 C CNN
	1    14200 2300
	1    0    0    -1  
$EndComp
Wire Wire Line
	13900 2200 13750 2200
Wire Wire Line
	14550 2200 14500 2200
$Comp
L power:+VDC #PWR025
U 1 1 613D8A2C
P 11100 1150
F 0 "#PWR025" H 11100 1050 50  0001 C CNN
F 1 "+VDC" H 11100 1425 50  0000 C CNN
F 2 "" H 11100 1150 50  0001 C CNN
F 3 "" H 11100 1150 50  0001 C CNN
	1    11100 1150
	1    0    0    -1  
$EndComp
$Comp
L power:-VDC #PWR026
U 1 1 613D8C16
P 11100 4250
F 0 "#PWR026" H 11100 4150 50  0001 C CNN
F 1 "-VDC" H 11100 4525 50  0000 C CNN
F 2 "" H 11100 4250 50  0001 C CNN
F 3 "" H 11100 4250 50  0001 C CNN
	1    11100 4250
	-1   0    0    1   
$EndComp
$Comp
L Device:R R7
U 1 1 613DBE30
P 10650 3400
F 0 "R7" H 10580 3354 50  0000 R CNN
F 1 "10" H 10580 3445 50  0000 R CNN
F 2 "Resistor_SMD:R_1206_3216Metric_Pad1.30x1.75mm_HandSolder" V 10580 3400 50  0001 C CNN
F 3 "~" H 10650 3400 50  0001 C CNN
	1    10650 3400
	-1   0    0    1   
$EndComp
$Comp
L power:GND #PWR024
U 1 1 613DC2D2
P 10650 3550
F 0 "#PWR024" H 10650 3300 50  0001 C CNN
F 1 "GND" H 10655 3377 50  0000 C CNN
F 2 "" H 10650 3550 50  0001 C CNN
F 3 "" H 10650 3550 50  0001 C CNN
	1    10650 3550
	1    0    0    -1  
$EndComp
$Comp
L Device:R R8
U 1 1 613E5AB5
P 11750 2550
F 0 "R8" V 11650 2550 50  0000 C CNN
F 1 "9990" V 11750 2550 50  0000 C CNN
F 2 "Resistor_SMD:R_1206_3216Metric_Pad1.30x1.75mm_HandSolder" V 11680 2550 50  0001 C CNN
F 3 "~" H 11750 2550 50  0001 C CNN
	1    11750 2550
	0    1    1    0   
$EndComp
$Comp
L Device:R R9
U 1 1 613E60A0
P 11750 2750
F 0 "R9" V 11650 2750 50  0000 C CNN
F 1 "990" V 11750 2750 50  0000 C CNN
F 2 "Resistor_SMD:R_1206_3216Metric_Pad1.30x1.75mm_HandSolder" V 11680 2750 50  0001 C CNN
F 3 "~" H 11750 2750 50  0001 C CNN
	1    11750 2750
	0    1    1    0   
$EndComp
$Comp
L Device:R R10
U 1 1 613E63BC
P 11750 2950
F 0 "R10" V 11650 2950 50  0000 C CNN
F 1 "90" V 11750 2950 50  0000 C CNN
F 2 "Resistor_SMD:R_1206_3216Metric_Pad1.30x1.75mm_HandSolder" V 11680 2950 50  0001 C CNN
F 3 "~" H 11750 2950 50  0001 C CNN
	1    11750 2950
	0    1    1    0   
$EndComp
$Comp
L Connector:TestPoint TP1
U 1 1 613F2A29
P 6550 1800
F 0 "TP1" H 6608 1918 50  0000 L CNN
F 1 "STAGE_1" H 6608 1827 50  0000 L CNN
F 2 "TestPoint:TestPoint_Pad_2.0x2.0mm" H 6750 1800 50  0001 C CNN
F 3 "~" H 6750 1800 50  0001 C CNN
	1    6550 1800
	1    0    0    -1  
$EndComp
Wire Wire Line
	6550 1800 6550 2100
Wire Wire Line
	1800 2000 2050 2000
Connection ~ 11100 1900
Wire Wire Line
	11100 1900 11100 1950
$Comp
L Device:EMI_Filter_LCL FL5
U 1 1 614100C5
P 7500 2200
F 0 "FL5" H 7500 2517 50  0000 C CNN
F 1 "NFE61PT472C1H9" H 7500 2426 50  0000 C CNN
F 2 "EMI_Filters:NFE61" V 7500 2200 50  0001 C CNN
F 3 "http://www.murata.com/~/media/webrenewal/support/library/catalog/products/emc/emifil/c31e.ashx?la=en-gb" V 7500 2200 50  0001 C CNN
	1    7500 2200
	1    0    0    -1  
$EndComp
$Comp
L Device:EMI_Filter_LCL FL2
U 1 1 6141CDBB
P 4350 2100
F 0 "FL2" H 4350 2417 50  0000 C CNN
F 1 "NFE61PT472C1H9" H 4500 2300 50  0000 C CNN
F 2 "EMI_Filters:NFE61" V 4350 2100 50  0001 C CNN
F 3 "http://www.murata.com/~/media/webrenewal/support/library/catalog/products/emc/emifil/c31e.ashx?la=en-gb" V 4350 2100 50  0001 C CNN
	1    4350 2100
	1    0    0    -1  
$EndComp
$Comp
L power:GND #PWR011
U 1 1 6141D711
P 4350 2200
F 0 "#PWR011" H 4350 1950 50  0001 C CNN
F 1 "GND" H 4355 2027 50  0000 C CNN
F 2 "" H 4350 2200 50  0001 C CNN
F 3 "" H 4350 2200 50  0001 C CNN
	1    4350 2200
	1    0    0    -1  
$EndComp
Wire Wire Line
	7950 2100 7800 2100
$Comp
L power:GND #PWR020
U 1 1 6141EDD7
P 7500 2300
F 0 "#PWR020" H 7500 2050 50  0001 C CNN
F 1 "GND" H 7505 2127 50  0000 C CNN
F 2 "" H 7500 2300 50  0001 C CNN
F 3 "" H 7500 2300 50  0001 C CNN
	1    7500 2300
	1    0    0    -1  
$EndComp
Wire Wire Line
	2950 2000 3400 2000
$Comp
L Device:EMI_Filter_LCL FL1
U 1 1 613B5DA3
P 1500 2100
F 0 "FL1" H 1500 2417 50  0000 C CNN
F 1 "NFE61PT472C1H9" H 1500 2326 50  0000 C CNN
F 2 "EMI_Filters:NFE61" V 1500 2100 50  0001 C CNN
F 3 "http://www.murata.com/~/media/webrenewal/support/library/catalog/products/emc/emifil/c31e.ashx?la=en-gb" V 1500 2100 50  0001 C CNN
	1    1500 2100
	1    0    0    -1  
$EndComp
$Comp
L power:GND #PWR02
U 1 1 613AF93B
P 1500 2200
F 0 "#PWR02" H 1500 1950 50  0001 C CNN
F 1 "GND" H 1505 2027 50  0000 C CNN
F 2 "" H 1500 2200 50  0001 C CNN
F 3 "" H 1500 2200 50  0001 C CNN
	1    1500 2200
	1    0    0    -1  
$EndComp
Wire Notes Line
	7500 1800 7500 500 
Wire Notes Line
	7500 500  4350 500 
Wire Notes Line
	4350 500  4350 1700
Wire Notes Line
	4350 2500 4350 4500
Wire Notes Line
	4350 4500 7500 4500
Wire Notes Line
	7500 4500 7500 2550
Text Notes 8000 1600 0    50   ~ 0
High Pass\nf > 0.08Hz
$Comp
L Device:EMI_Filter_LCL FL3
U 1 1 61448AC1
P 7050 4150
F 0 "FL3" H 7050 4467 50  0000 C CNN
F 1 "NFE61PT472C1H9" H 7050 4376 50  0000 C CNN
F 2 "EMI_Filters:NFE61" V 7050 4150 50  0001 C CNN
F 3 "http://www.murata.com/~/media/webrenewal/support/library/catalog/products/emc/emifil/c31e.ashx?la=en-gb" V 7050 4150 50  0001 C CNN
	1    7050 4150
	1    0    0    -1  
$EndComp
$Comp
L power:GND #PWR018
U 1 1 61449613
P 7050 4250
F 0 "#PWR018" H 7050 4000 50  0001 C CNN
F 1 "GND" H 7055 4077 50  0000 C CNN
F 2 "" H 7050 4250 50  0001 C CNN
F 3 "" H 7050 4250 50  0001 C CNN
	1    7050 4250
	1    0    0    -1  
$EndComp
Wire Wire Line
	7350 4050 7800 4050
Wire Wire Line
	6750 4050 5600 4050
Wire Wire Line
	5600 3750 5600 4050
$Comp
L Device:EMI_Filter_LCL FL4
U 1 1 6144C5FC
P 7100 850
F 0 "FL4" H 7100 1167 50  0000 C CNN
F 1 "NFE61PT472C1H9" H 7100 1076 50  0000 C CNN
F 2 "EMI_Filters:NFE61" V 7100 850 50  0001 C CNN
F 3 "http://www.murata.com/~/media/webrenewal/support/library/catalog/products/emc/emifil/c31e.ashx?la=en-gb" V 7100 850 50  0001 C CNN
	1    7100 850 
	1    0    0    -1  
$EndComp
Wire Wire Line
	7750 750  7400 750 
Wire Wire Line
	6800 750  5600 750 
Wire Wire Line
	5600 750  5600 1250
$Comp
L power:GND #PWR019
U 1 1 614507D3
P 7100 950
F 0 "#PWR019" H 7100 700 50  0001 C CNN
F 1 "GND" H 7105 777 50  0000 C CNN
F 2 "" H 7100 950 50  0001 C CNN
F 3 "" H 7100 950 50  0001 C CNN
	1    7100 950 
	1    0    0    -1  
$EndComp
$Comp
L Switch:SW_DPDT_x2 SW1
U 1 1 61456DC6
P 2450 8750
F 0 "SW1" V 2496 8562 50  0000 R CNN
F 1 "SW_DPDT_x2" V 2405 8562 50  0000 R CNN
F 2 "ToggleSw:100DP1T1B1M6QE" H 2450 8750 50  0001 C CNN
F 3 "~" H 2450 8750 50  0001 C CNN
F 4 "100DP1T1B1M6QE" V 2450 8750 50  0001 C CNN "Part"
	1    2450 8750
	0    -1   -1   0   
$EndComp
$Comp
L Switch:SW_DPDT_x2 SW1
U 2 1 6145B243
P 2450 9950
F 0 "SW1" V 2404 10098 50  0000 L CNN
F 1 "SW_DPDT_x2" V 2495 10098 50  0000 L CNN
F 2 "ToggleSw:100DP1T1B1M6QE" H 2450 9950 50  0001 C CNN
F 3 "~" H 2450 9950 50  0001 C CNN
	2    2450 9950
	0    1    1    0   
$EndComp
Connection ~ 2050 2000
Wire Wire Line
	2050 2000 2300 2000
Wire Wire Line
	3500 1000 3500 2000
Text Notes 4400 1550 0    50   ~ 0
ADA4625\nVos < 250uV\ne_n[0.1-10Hz] = 0.15uV p-p\n
$Comp
L Device:R R3
U 1 1 61463051
P 3500 2950
F 0 "R3" H 3430 2859 50  0000 R CNN
F 1 "20k" H 3430 2950 50  0000 R CNN
F 2 "Resistor_SMD:R_1206_3216Metric_Pad1.30x1.75mm_HandSolder" V 3430 2950 50  0001 C CNN
F 3 "~" H 3500 2950 50  0001 C CNN
F 4 "Vn=18nV" H 3430 3041 50  0000 R CNN "Vn"
F 5 "RG3216P-2002-B-T1" H 3500 2950 50  0001 C CNN "Part"
	1    3500 2950
	-1   0    0    1   
$EndComp
$Comp
L power:GND #PWR07
U 1 1 61463B15
P 3000 3100
F 0 "#PWR07" H 3000 2850 50  0001 C CNN
F 1 "GND" H 3005 2927 50  0000 C CNN
F 2 "" H 3000 3100 50  0001 C CNN
F 3 "" H 3000 3100 50  0001 C CNN
	1    3000 3100
	1    0    0    -1  
$EndComp
$Comp
L power:GND #PWR09
U 1 1 61463DDB
P 3500 3100
F 0 "#PWR09" H 3500 2850 50  0001 C CNN
F 1 "GND" H 3505 2927 50  0000 C CNN
F 2 "" H 3500 3100 50  0001 C CNN
F 3 "" H 3500 3100 50  0001 C CNN
	1    3500 3100
	1    0    0    -1  
$EndComp
$Comp
L Device:R R1
U 1 1 614676AB
P 2550 2950
F 0 "R1" H 2480 2859 50  0000 R CNN
F 1 "200" H 2480 2950 50  0000 R CNN
F 2 "Resistor_SMD:R_1206_3216Metric_Pad1.30x1.75mm_HandSolder" V 2480 2950 50  0001 C CNN
F 3 "~" H 2550 2950 50  0001 C CNN
F 4 "Vn=2nV" H 2480 3041 50  0000 R CNN "Vn"
F 5 "RG3216P-2000-B-T1" H 2550 2950 50  0001 C CNN "Part"
	1    2550 2950
	-1   0    0    1   
$EndComp
$Comp
L power:GND #PWR05
U 1 1 61467DA1
P 2550 3100
F 0 "#PWR05" H 2550 2850 50  0001 C CNN
F 1 "GND" H 2555 2927 50  0000 C CNN
F 2 "" H 2550 3100 50  0001 C CNN
F 3 "" H 2550 3100 50  0001 C CNN
	1    2550 3100
	1    0    0    -1  
$EndComp
Wire Wire Line
	12100 2650 12100 2550
Wire Wire Line
	12100 2550 11900 2550
Wire Wire Line
	12100 2750 11900 2750
Wire Wire Line
	12100 2850 12000 2850
Wire Wire Line
	12000 2850 12000 2950
Wire Wire Line
	12000 2950 11900 2950
Wire Wire Line
	3500 2600 3500 2800
Wire Wire Line
	3400 2600 3400 2700
Wire Wire Line
	3400 2700 3000 2700
Wire Wire Line
	3000 2700 3000 2800
$Comp
L Device:C C9
U 1 1 613D7A50
P 11300 3600
F 0 "C9" V 11048 3600 50  0000 C CNN
F 1 "470nF" V 11139 3600 50  0000 C CNN
F 2 "Capacitor_SMD:C_1812_4532Metric" H 11338 3450 50  0001 C CNN
F 3 "https://api.kemet.com/component-edge/download/datasheet/LDECC3180JA5N00.pdf" H 11300 3600 50  0001 C CNN
F 4 "LDECC3180JA5N00" V 11300 3600 50  0001 C CNN "Part"
	1    11300 3600
	0    1    1    0   
$EndComp
$Comp
L Device:C C6
U 1 1 613E0F2A
P 5850 1650
F 0 "C6" V 5598 1650 50  0000 C CNN
F 1 "470nF" V 5689 1650 50  0000 C CNN
F 2 "Capacitor_SMD:C_1812_4532Metric" H 5888 1500 50  0001 C CNN
F 3 "https://api.kemet.com/component-edge/download/datasheet/LDECC3180JA5N00.pdf" H 5850 1650 50  0001 C CNN
F 4 "LDECC3180JA5N00" V 5850 1650 50  0001 C CNN "Part"
	1    5850 1650
	0    1    1    0   
$EndComp
$Comp
L Device:C C3
U 1 1 613E14ED
P 5800 3300
F 0 "C3" V 5548 3300 50  0000 C CNN
F 1 "470nF" V 5639 3300 50  0000 C CNN
F 2 "Capacitor_SMD:C_1812_4532Metric" H 5838 3150 50  0001 C CNN
F 3 "https://api.kemet.com/component-edge/download/datasheet/LDECC3180JA5N00.pdf" H 5800 3300 50  0001 C CNN
F 4 "LDECC3180JA5N00" V 5800 3300 50  0001 C CNN "Part"
	1    5800 3300
	0    1    1    0   
$EndComp
$Comp
L Device:C C4
U 1 1 613E1BD0
P 5800 3750
F 0 "C4" V 5548 3750 50  0000 C CNN
F 1 "1uF" V 5639 3750 50  0000 C CNN
F 2 "Capacitor_SMD:C_2220_5650Metric_Pad1.97x5.40mm_HandSolder" H 5838 3600 50  0001 C CNN
F 3 "https://www.wima.de/wp-content/uploads/media/e_WIMA_SMD_PET.pdf" H 5800 3750 50  0001 C CNN
F 4 "SMDTC04100VA00KR00" V 5800 3750 50  0001 C CNN "Part"
	1    5800 3750
	0    1    1    0   
$EndComp
$Comp
L Device:C C5
U 1 1 613E256B
P 5850 1250
F 0 "C5" V 5598 1250 50  0000 C CNN
F 1 "1uF" V 5689 1250 50  0000 C CNN
F 2 "Capacitor_SMD:C_2220_5650Metric_Pad1.97x5.40mm_HandSolder" H 5888 1100 50  0001 C CNN
F 3 "https://www.wima.de/wp-content/uploads/media/e_WIMA_SMD_PET.pdf" H 5850 1250 50  0001 C CNN
F 4 "SMDTC04100VA00KR00" V 5850 1250 50  0001 C CNN "Part"
	1    5850 1250
	0    1    1    0   
$EndComp
$Comp
L ADA4625:ADA4625-1 U1
U 1 1 613EA30F
P 5700 2100
F 0 "U1" H 6044 2146 50  0000 L CNN
F 1 "ADA4625-1" H 6044 2055 50  0000 L CNN
F 2 "Package_SO:SOIC-8-1EP_3.9x4.9mm_P1.27mm_EP2.29x3mm" H 5600 1900 50  0001 L CNN
F 3 "https://www.analog.com/media/en/technical-documentation/data-sheets/ADA4625-1-4625-2.pdf" H 5850 2250 50  0001 C CNN
	1    5700 2100
	1    0    0    -1  
$EndComp
$Comp
L Device:RF_Shield_One_Piece J3
U 1 1 6140EA77
P 5900 4500
F 0 "J3" H 6530 4489 50  0000 L CNN
F 1 "RF_Shield_One_Piece" H 6530 4398 50  0000 L CNN
F 2 "RF_Shielding:Laird_Technologies_BMI-S-105_38.10x25.40mm" H 5900 4400 50  0001 C CNN
F 3 "~" H 5900 4400 50  0001 C CNN
F 4 "SMS-205-F" H 5900 4500 50  0001 C CNN "Part"
	1    5900 4500
	1    0    0    -1  
$EndComp
$Comp
L power:GND #PWR0101
U 1 1 61411A04
P 5900 4900
F 0 "#PWR0101" H 5900 4650 50  0001 C CNN
F 1 "GND" H 5905 4727 50  0000 C CNN
F 2 "" H 5900 4900 50  0001 C CNN
F 3 "" H 5900 4900 50  0001 C CNN
	1    5900 4900
	1    0    0    -1  
$EndComp
Text Label 3000 1000 0    50   ~ 0
STAGE1_IN
Text Label 4650 2000 0    50   ~ 0
STAGE1_IN_FLT
Text Label 1000 2000 0    50   ~ 0
IN
Text Label 6700 2100 0    50   ~ 0
STAGE1_OUT
Text Label 9650 2100 0    50   ~ 0
STAGE2_IN
Text Label 11550 2200 0    50   ~ 0
STAGE2_OUT_O
Wire Wire Line
	3400 2000 3400 2200
Connection ~ 3400 2000
Wire Wire Line
	3400 2000 3500 2000
$Comp
L Switch:SW_SPST SW2
U 1 1 6145248A
P 2750 1000
F 0 "SW2" V 2796 912 50  0000 R CNN
F 1 "SHRT_IN" H 2700 900 50  0000 R CNN
F 2 "Connector_PinHeader_2.54mm:PinHeader_1x02_P2.54mm_Vertical" H 2750 1000 50  0001 C CNN
F 3 "~" H 2750 1000 50  0001 C CNN
	1    2750 1000
	1    0    0    -1  
$EndComp
Wire Wire Line
	2050 1000 2550 1000
Wire Wire Line
	2050 1000 2050 2000
Wire Wire Line
	2950 1000 3500 1000
Text Label 2100 1000 0    50   ~ 0
IN_FLT
$Comp
L RotarySw:SW_SP4T SW4
U 1 1 61464865
P 12300 2850
F 0 "SW4" H 12300 2425 50  0000 C CNN
F 1 "STAGE2_GAIN" H 12300 2516 50  0000 C CNN
F 2 "RotarySw:RM10x" H 11675 3025 50  0001 C CNN
F 3 "~" H 11675 3025 50  0001 C CNN
F 4 "RM104772BCB" H 12300 2850 50  0001 C CNN "Part"
	1    12300 2850
	-1   0    0    1   
$EndComp
Wire Wire Line
	12500 2200 12500 2850
Wire Wire Line
	12100 2950 12100 3100
$Comp
L RotarySw:SW_SP4T SW3
U 1 1 6146BAB8
P 3400 2400
F 0 "SW3" V 3354 2546 50  0000 L CNN
F 1 "HI_FILTER" V 3445 2546 50  0000 L CNN
F 2 "RotarySw:RM10x" H 2775 2575 50  0001 C CNN
F 3 "~" H 2775 2575 50  0001 C CNN
F 4 "RM104772BCB" V 3400 2400 50  0001 C CNN "Part"
	1    3400 2400
	0    1    1    0   
$EndComp
Wire Wire Line
	3300 2600 3300 2650
Wire Wire Line
	3300 2650 2550 2650
Wire Wire Line
	2550 2650 2550 2800
Wire Wire Line
	3200 2600 2400 2600
Wire Wire Line
	2400 2600 2400 3100
$Comp
L power:GND #PWR0102
U 1 1 61471356
P 2400 3100
F 0 "#PWR0102" H 2400 2850 50  0001 C CNN
F 1 "GND" H 2405 2927 50  0000 C CNN
F 2 "" H 2400 3100 50  0001 C CNN
F 3 "" H 2400 3100 50  0001 C CNN
	1    2400 3100
	1    0    0    -1  
$EndComp
$Comp
L Device:R R11
U 1 1 614FA34D
P 12700 2200
F 0 "R11" V 12493 2200 50  0000 C CNN
F 1 "0" V 12584 2200 50  0000 C CNN
F 2 "Resistor_SMD:R_2512_6332Metric" V 12630 2200 50  0001 C CNN
F 3 "~" H 12700 2200 50  0001 C CNN
	1    12700 2200
	0    1    1    0   
$EndComp
Text Label 13050 2200 0    50   ~ 0
STAGE2_OUT
Wire Wire Line
	13450 2200 12850 2200
Wire Wire Line
	11500 2200 12500 2200
Connection ~ 12500 2200
Wire Wire Line
	12500 2200 12550 2200
Wire Wire Line
	11100 2500 11100 3600
Wire Wire Line
	12100 3100 10650 3100
Wire Wire Line
	11600 2950 10650 2950
Connection ~ 10650 2950
Wire Wire Line
	10650 2950 10650 3100
Wire Wire Line
	11600 2750 10650 2750
Connection ~ 10650 2750
Wire Wire Line
	10650 2750 10650 2950
Wire Wire Line
	11600 2550 10650 2550
Wire Wire Line
	10650 2550 10650 2750
Wire Wire Line
	10650 3250 10650 3100
Connection ~ 10650 3100
Text Label 5250 2750 1    50   ~ 0
STAGE1_NEG
$Comp
L Device:R R13
U 1 1 6154D9E2
P 5200 2000
F 0 "R13" V 4903 2000 50  0000 C CNN
F 1 "200" V 4994 2000 50  0000 C CNN
F 2 "Resistor_SMD:R_1206_3216Metric" V 5130 2000 50  0001 C CNN
F 3 "~" H 5200 2000 50  0001 C CNN
F 4 "1.9nV" V 5085 2000 50  0000 C CNN "Vn"
	1    5200 2000
	0    1    1    0   
$EndComp
Wire Wire Line
	5400 2000 5350 2000
Wire Wire Line
	5050 2000 4650 2000
$Comp
L Device:R R14
U 1 1 6156BCB4
P 5600 3500
F 0 "R14" H 5670 3546 50  0000 L CNN
F 1 "0" H 5670 3455 50  0000 L CNN
F 2 "Resistor_SMD:R_1206_3216Metric" V 5530 3500 50  0001 C CNN
F 3 "~" H 5600 3500 50  0001 C CNN
	1    5600 3500
	1    0    0    -1  
$EndComp
Wire Wire Line
	5600 3650 5600 3750
Connection ~ 5600 3750
Wire Wire Line
	5600 3350 5600 3300
Connection ~ 5600 3300
$Comp
L Device:R R15
U 1 1 61588AED
P 9300 2100
F 0 "R15" V 9093 2100 50  0000 C CNN
F 1 "0" V 9184 2100 50  0000 C CNN
F 2 "Resistor_SMD:R_1206_3216Metric" V 9230 2100 50  0001 C CNN
F 3 "~" H 9300 2100 50  0001 C CNN
	1    9300 2100
	0    1    1    0   
$EndComp
Wire Wire Line
	9150 2100 8450 2100
Connection ~ 8450 2100
Wire Wire Line
	9450 2100 10900 2100
$Comp
L Device:R R16
U 1 1 61591BC3
P 10400 2550
F 0 "R16" H 10470 2596 50  0000 L CNN
F 1 "0" H 10470 2505 50  0000 L CNN
F 2 "Resistor_SMD:R_2010_5025Metric" V 10330 2550 50  0001 C CNN
F 3 "~" H 10400 2550 50  0001 C CNN
	1    10400 2550
	1    0    0    -1  
$EndComp
Wire Wire Line
	10400 2400 10400 2300
Wire Wire Line
	10400 2300 10900 2300
Wire Wire Line
	10650 2750 10400 2750
Wire Wire Line
	10400 2750 10400 2700
$Comp
L Device:R R17
U 1 1 615C031B
P 3700 2000
F 0 "R17" V 3389 2000 50  0000 C CNN
F 1 "200" V 3480 2000 50  0000 C CNN
F 2 "Resistor_SMD:R_1206_3216Metric" V 3630 2000 50  0001 C CNN
F 3 "~" H 3700 2000 50  0001 C CNN
F 4 "~1.9 nV" V 3578 2000 50  0000 C CNN "Vn"
	1    3700 2000
	0    1    1    0   
$EndComp
Wire Wire Line
	3550 2000 3500 2000
Connection ~ 3500 2000
Wire Wire Line
	4050 2000 3950 2000
Wire Wire Line
	3950 2000 3950 4000
Wire Wire Line
	3950 4000 3000 4000
Connection ~ 3950 2000
Wire Wire Line
	3950 2000 3850 2000
Text Label 3150 4000 0    50   ~ 0
STAGE1_IN_PROTECT
Wire Wire Line
	1950 4350 1950 4700
Wire Wire Line
	1950 4700 1750 4700
Wire Wire Line
	1750 4700 1750 4650
Wire Wire Line
	2400 4500 2400 4150
Wire Wire Line
	2400 4150 2550 4150
Wire Wire Line
	2600 4150 2600 4200
Wire Wire Line
	3400 4350 3400 4700
Wire Wire Line
	3400 4700 3200 4700
Wire Wire Line
	3200 4700 3200 4650
Wire Wire Line
	3750 4450 3750 4100
Wire Wire Line
	3750 4100 3950 4100
Wire Wire Line
	3950 4100 3950 4150
Wire Wire Line
	3950 4100 3950 4000
Connection ~ 3950 4100
Connection ~ 3950 4000
Wire Wire Line
	3000 4350 3000 4000
Connection ~ 3000 4000
Wire Wire Line
	3000 4000 2550 4000
$Comp
L power:GND #PWR034
U 1 1 615EA346
P 4150 4800
F 0 "#PWR034" H 4150 4550 50  0001 C CNN
F 1 "GND" H 4155 4627 50  0000 C CNN
F 2 "" H 4150 4800 50  0001 C CNN
F 3 "" H 4150 4800 50  0001 C CNN
	1    4150 4800
	1    0    0    -1  
$EndComp
Wire Wire Line
	4150 4800 4150 4450
$Comp
L power:GND #PWR033
U 1 1 615EEDC7
P 3400 4800
F 0 "#PWR033" H 3400 4550 50  0001 C CNN
F 1 "GND" H 3405 4627 50  0000 C CNN
F 2 "" H 3400 4800 50  0001 C CNN
F 3 "" H 3400 4800 50  0001 C CNN
	1    3400 4800
	1    0    0    -1  
$EndComp
Wire Wire Line
	3400 4800 3400 4700
Connection ~ 3400 4700
$Comp
L power:+VDC #PWR032
U 1 1 615FD59C
P 2900 4700
F 0 "#PWR032" H 2900 4600 50  0001 C CNN
F 1 "+VDC" H 2900 4975 50  0000 C CNN
F 2 "" H 2900 4700 50  0001 C CNN
F 3 "" H 2900 4700 50  0001 C CNN
	1    2900 4700
	-1   0    0    1   
$EndComp
Wire Wire Line
	2550 4150 2550 4000
Connection ~ 2550 4150
Wire Wire Line
	2550 4150 2600 4150
Connection ~ 2550 4000
Wire Wire Line
	2900 4700 2900 4500
Wire Wire Line
	2900 4500 2800 4500
Wire Wire Line
	1550 4350 1550 4000
Wire Wire Line
	1550 4000 2550 4000
$Comp
L power:-VDC #PWR010
U 1 1 61610BEA
P 1950 4800
F 0 "#PWR010" H 1950 4700 50  0001 C CNN
F 1 "-VDC" H 1950 5075 50  0000 C CNN
F 2 "" H 1950 4800 50  0001 C CNN
F 3 "" H 1950 4800 50  0001 C CNN
	1    1950 4800
	-1   0    0    1   
$EndComp
Wire Wire Line
	1950 4800 1950 4700
Connection ~ 1950 4700
$Comp
L Transistor_BJT:MMBT3904 Q1
U 1 1 61617376
P 1750 4450
F 0 "Q1" V 2078 4450 50  0000 C CNN
F 1 "MMBT3904" V 1987 4450 50  0000 C CNN
F 2 "Package_TO_SOT_SMD:SOT-23" H 1950 4375 50  0001 L CIN
F 3 "https://www.onsemi.com/pub/Collateral/2N3903-D.PDF" H 1750 4450 50  0001 L CNN
	1    1750 4450
	0    -1   -1   0   
$EndComp
$Comp
L Transistor_BJT:MMBT3904 Q3
U 1 1 61625B10
P 3200 4450
F 0 "Q3" V 3528 4450 50  0000 C CNN
F 1 "MMBT3904" V 3437 4450 50  0000 C CNN
F 2 "Package_TO_SOT_SMD:SOT-23" H 3400 4375 50  0001 L CIN
F 3 "https://www.onsemi.com/pub/Collateral/2N3903-D.PDF" H 3200 4450 50  0001 L CNN
	1    3200 4450
	0    -1   -1   0   
$EndComp
$Comp
L Transistor_BJT:MMBT3904 Q4
U 1 1 616265AD
P 3950 4350
F 0 "Q4" V 4185 4350 50  0000 C CNN
F 1 "MMBT3904" V 4276 4350 50  0000 C CNN
F 2 "Package_TO_SOT_SMD:SOT-23" H 4150 4275 50  0001 L CIN
F 3 "https://www.onsemi.com/pub/Collateral/2N3903-D.PDF" H 3950 4350 50  0001 L CNN
	1    3950 4350
	0    1    1    0   
$EndComp
$Comp
L Transistor_BJT:MMBT3904 Q2
U 1 1 61627258
P 2600 4400
F 0 "Q2" V 2835 4400 50  0000 C CNN
F 1 "MMBT3904" V 2926 4400 50  0000 C CNN
F 2 "Package_TO_SOT_SMD:SOT-23" H 2800 4325 50  0001 L CIN
F 3 "https://www.onsemi.com/pub/Collateral/2N3903-D.PDF" H 2600 4400 50  0001 L CNN
	1    2600 4400
	0    1    1    0   
$EndComp
Text Notes 2300 3800 0    50   ~ 0
Input Protection
NoConn ~ 2350 8550
NoConn ~ 2550 10150
Wire Wire Line
	2350 10150 2350 10250
Wire Wire Line
	2350 10250 2250 10250
Connection ~ 2350 10250
Wire Wire Line
	2350 10250 2350 10350
$Comp
L Device:CP C14
U 1 1 61660DB4
P 2750 8400
F 0 "C14" V 3005 8400 50  0000 C CNN
F 1 "CP" V 2914 8400 50  0000 C CNN
F 2 "Capacitor_SMD:CP_Elec_6.3x7.7" H 2788 8250 50  0001 C CNN
F 3 "~" H 2750 8400 50  0001 C CNN
F 4 "875105145011" V 2750 8400 50  0001 C CNN "Part"
	1    2750 8400
	0    -1   -1   0   
$EndComp
Wire Wire Line
	2550 8300 2550 8400
Wire Wire Line
	2600 8400 2550 8400
Connection ~ 2550 8400
Wire Wire Line
	2550 8400 2550 8550
$Comp
L power:GND #PWR036
U 1 1 6166C40C
P 2900 8400
F 0 "#PWR036" H 2900 8150 50  0001 C CNN
F 1 "GND" V 2905 8272 50  0000 R CNN
F 2 "" H 2900 8400 50  0001 C CNN
F 3 "" H 2900 8400 50  0001 C CNN
	1    2900 8400
	0    -1   -1   0   
$EndComp
$Comp
L power:GND #PWR035
U 1 1 616765B9
P 1950 10250
F 0 "#PWR035" H 1950 10000 50  0001 C CNN
F 1 "GND" V 1955 10122 50  0000 R CNN
F 2 "" H 1950 10250 50  0001 C CNN
F 3 "" H 1950 10250 50  0001 C CNN
	1    1950 10250
	0    1    1    0   
$EndComp
$Comp
L Device:CP C13
U 1 1 61676FA5
P 2100 10250
F 0 "C13" V 2355 10250 50  0000 C CNN
F 1 "CP" V 2264 10250 50  0000 C CNN
F 2 "Capacitor_SMD:CP_Elec_6.3x7.7" H 2138 10100 50  0001 C CNN
F 3 "~" H 2100 10250 50  0001 C CNN
F 4 "875105145011" V 2100 10250 50  0001 C CNN "Part"
	1    2100 10250
	0    -1   -1   0   
$EndComp
Wire Wire Line
	11100 3600 11100 4250
$EndSCHEMATC
