<Qucs Dataset 0.0.20>
<indep frequency 100>
  +1.00000000000000002082e-02
  +1.09749876549305614565e-02
  +1.20450354025878232644e-02
  +1.32194114846602914226e-02
  +1.45082877849593977482e-02
  +1.59228279334109254495e-02
  +1.74752840000768384920e-02
  +1.91791026167248863932e-02
  +2.10490414451202055568e-02
  +2.31012970008315984827e-02
  +2.53536449397011205698e-02
  +2.78255940220712462418e-02
  +3.05385550883341579109e-02
  +3.35160265093884246479e-02
  +3.67837977182863401504e-02
  +4.03701725859655427553e-02
  +4.43062145758388037375e-02
  +4.86260158006535450625e-02
  +5.33669923120631065072e-02
  +5.85702081805666713299e-02
  +6.42807311728432195785e-02
  +7.05480231071864416492e-02
  +7.74263682681127080043e-02
  +8.49753435908644355612e-02
  +9.32603346883220107877e-02
  +1.02353102189902664398e-01
  +1.12332403297802752018e-01
  +1.23284673944206626950e-01
  +1.35304777457980723865e-01
  +1.48496826225446548753e-01
  +1.62975083462064435080e-01
  +1.78864952905743501699e-01
  +1.96304065004027139540e-01
  +2.15443469003188420308e-01
  +2.36448941264540829499e-01
  +2.59502421139973626918e-01
  +2.84803586843580203158e-01
  +3.12571584968823701356e-01
  +3.43046928631491943040e-01
  +3.76493580679246819809e-01
  +4.13201240011533743601e-01
  +4.53487850812858361849e-01
  +4.97702356433211257070e-01
  +5.46227721768434371086e-01
  +5.99484250318941036539e-01
  +6.57933224657568427318e-01
  +7.22080901838546673766e-01
  +7.92482898353917275536e-01
  +8.69749002617783761870e-01
  +9.54548456661834188175e-01
  +1.04761575278966567737e+00
  +1.14975699539773623670e+00
  +1.26185688306602039610e+00
  +1.38488637139387371633e+00
  +1.51991108295293408936e+00
  +1.66810053720005879718e+00
  +1.83073828029536911366e+00
  +2.00923300256504733241e+00
  +2.20513073990304730998e+00
  +2.42012826479438292182e+00
  +2.65608778294668645970e+00
  +2.91505306282517784311e+00
  +3.19926713779738403076e+00
  +3.51119173421513375288e+00
  +3.85352859371053080295e+00
  +4.22924287438949875195e+00
  +4.64158883361278196134e+00
  +5.09413801481638017776e+00
  +5.59081018251222783277e+00
  +6.13590727341317609955e+00
  +6.73415065775082233301e+00
  +7.39072203352578327440e+00
  +8.11130830789687351512e+00
  +8.90215085445039377987e+00
  +9.77009957299225817451e+00
  +1.07226722201032345083e+01
  +1.17681195243499931991e+01
  +1.29154966501488441821e+01
  +1.41747416292680536998e+01
  +1.55567614393047275456e+01
  +1.70735264747069130919e+01
  +1.87381742286038566192e+01
  +2.05651230834865224040e+01
  +2.25701971963392047371e+01
  +2.47707635599171283047e+01
  +2.71858824273294175100e+01
  +2.98364724028334151740e+01
  +3.27454916287772732630e+01
  +3.59381366380462807797e+01
  +3.94420605943765849588e+01
  +4.32876128108306446052e+01
  +4.75081016210279756251e+01
  +5.21400828799968820704e+01
  +5.72236765935022404506e+01
  +6.28029144183425174219e+01
  +6.89261210434970053029e+01
  +7.56463327554629643146e+01
  +8.30217568131974275047e+01
  +9.11162756115489571584e+01
  +1.00000000000000099476e+02
</indep>
<dep gain frequency>
  +9.61518863636601395228e+00
  +1.04232693592595637710e+01
  +1.12313500650116395718e+01
  +1.20394307500693003021e+01
  +1.28475114101610188300e+01
  +1.36555920401484769400e+01
  +1.44636726338480627874e+01
  +1.52717531838162301483e+01
  +1.60798336810910384997e+01
  +1.68879141148809779338e+01
  +1.76959944721902502351e+01
  +1.85040747373676168763e+01
  +1.93121548915628977738e+01
  +2.01202349120725116904e+01
  +2.09283147715512143350e+01
  +2.17363944370625787883e+01
  +2.25444738689355261840e+01
  +2.33525530193868178230e+01
  +2.41606318308621013102e+01
  +2.49687102340375304266e+01
  +2.57767881454128797714e+01
  +2.65848654644124238189e+01
  +2.73929420698929959599e+01
  +2.82010178159379449880e+01
  +2.90090925267911430296e+01
  +2.98171659907549440049e+01
  +3.06252379528405214160e+01
  +3.14333081059153514047e+01
  +3.22413760800406521412e+01
  +3.30494414296288283595e+01
  +3.38575036179750910037e+01
  +3.46655619986269840638e+01
  +3.54736157929450897086e+01
  +3.62816640630770450571e+01
  +3.70897056794076434016e+01
  +3.78977392813567348639e+01
  +3.87057632301664966690e+01
  +3.95137755520427802480e+01
  +4.03217738696819765210e+01
  +4.11297553198142935571e+01
  +4.19377164539124862586e+01
  +4.27456531186359001140e+01
  +4.35535603118841123660e+01
  +4.43614320094987633070e+01
  +4.51692609566498362028e+01
  +4.59770384167401147124e+01
  +4.67847538692213333889e+01
  +4.75923946459923072894e+01
  +4.83999454939890156879e+01
  +4.92073880491204675991e+01
  +5.00147002037780978867e+01
  +5.08218553466731108870e+01
  +5.16288214496435386991e+01
  +5.24355599712226734255e+01
  +5.32420245410682113629e+01
  +5.40481593827094926041e+01
  +5.48538974243802215369e+01
  +5.56591580388846480787e+01
  +5.64638443434593710890e+01
  +5.72678399794735071282e+01
  +5.80710052797123026380e+01
  +5.88731727182535991005e+01
  +5.96741415252011790926e+01
  +6.04736713368254470424e+01
  +6.12714747426249317641e+01
  +6.20672085869371770173e+01
  +6.28604638876030392680e+01
  +6.36507542529173377943e+01
  +6.44375027176339472135e+01
  +6.52200269882950181000e+01
  +6.59975231991589481595e+01
  +6.67690484461956828000e+01
  +6.75335026028455445157e+01
  +6.82896102412140919569e+01
  +6.90359038944233560642e+01
  +6.97707103959909034074e+01
  +7.04921425941568884355e+01
  +7.11980993021984573943e+01
  +7.18862768021150344566e+01
  +7.25541954068149266277e+01
  +7.31992442966835881180e+01
  +7.38187468581115098232e+01
  +7.44100468956230542972e+01
  +7.49706133492574622323e+01
  +7.54981577663179734827e+01
  +7.59907553129741302200e+01
  +7.64469574015841857317e+01
  +7.68658829659573825666e+01
  +7.72472767073249997338e+01
  +7.75915263571143185573e+01
  +7.78996365275309017306e+01
  +7.81731628167582783817e+01
  +7.84141150731748126645e+01
  +7.86248419700855265546e+01
  +7.88079098187542825826e+01
  +7.89659870906790928302e+01
  +7.91017431777850816843e+01
  +7.92177664109641597179e+01
  +7.93165030726025150898e+01
  +7.94002165719097376950e+01
</dep>
<dep Rn frequency>
  +6.32642702557165803963e+30
  +5.25231086103803501456e+30
  +4.36056075074692497258e+30
  +3.62021414260610033162e+30
  +3.00556538188728253562e+30
  +2.49527318241603693302e+30
  +2.07161963347093476587e+30
  +1.71989501429157541095e+30
  +1.42788705627423716200e+30
  +1.18545691947314692503e+30
  +9.84187160841943667346e+29
  +8.17089471282777862762e+29
  +6.78362033809699978163e+29
  +5.63188078032937930478e+29
  +4.67568636552586442881e+29
  +3.88183696378406923309e+29
  +3.22276924399163267586e+29
  +2.67559964442070358085e+29
  +2.22132983010189286259e+29
  +1.84418704957734608438e+29
  +1.53107648748826360497e+29
  +1.27112659807184389344e+29
  +1.05531163304272322420e+29
  +8.76138257608626309497e+28
  +7.27385373580951809100e+28
  +6.03888115950339838913e+28
  +5.01358523048914476541e+28
  +4.16236653768475575370e+28
  +3.45566982459445776547e+28
  +2.86895779804455034918e+28
  +2.38185916616767159343e+28
  +1.97746132456985816221e+28
  +1.64172313196030224311e+28
  +1.36298738616270130563e+28
  +1.13157607313497222863e+28
  +9.39454335594735714449e+27
  +7.79951493868700468861e+27
  +6.47529432500710652012e+27
  +5.37590310744711275009e+27
  +4.46316920437852665548e+27
  +3.70540148302110840002e+27
  +3.07628940818670646484e+27
  +2.55398951133512803980e+27
  +2.12036696113536894702e+27
  +1.76036590202129416834e+27
  +1.46148669819863707114e+27
  +1.21335193243575124347e+27
  +1.00734609063507521876e+27
  +8.36316421634325219545e+26
  +6.94324585758100581159e+26
  +5.76440469082340421980e+26
  +4.78571004414403833168e+26
  +3.97318055463408046837e+26
  +3.29860429781759041003e+26
  +2.73855923836382347264e+26
  +2.27359999105978647993e+26
  +1.88758265548254517997e+26
  +1.56710428188282014386e+26
  +1.30103750591396446393e+26
  +1.08014419420838569160e+26
  +8.96754686147559478023e+25
  +7.44501494744380549219e+25
  +6.18098220437301828759e+25
  +5.13156001438157501324e+25
  +4.26031127586316053350e+25
  +3.53698526693235029233e+25
  +2.93646730683119451672e+25
  +2.43790674637645063085e+25
  +2.02399301030919045068e+25
  +1.68035455493501059796e+25
  +1.39505987219763344924e+25
  +1.15820321449442092526e+25
  +9.61560656140195389139e+24
  +7.98304549552097618140e+24
  +6.62766461757834704768e+24
  +5.50240360120023655645e+24
  +4.56819213666907303444e+24
  +3.79259336646500825013e+24
  +3.14867764162003986704e+24
  +2.61408749445730691501e+24
  +2.17026136253255255903e+24
  +1.80178911061255964223e+24
  +1.49587697369943554130e+24
  +1.24190334332936283331e+24
  +1.03104997355387202044e+24
  +8.55995801666432171770e+23
  +7.10662752790684631040e+23
  +5.90004702383858228658e+23
  +4.89832269199555568861e+23
  +4.06667355327421353034e+23
  +3.37622382778592916406e+23
  +2.80300033577366887334e+23
  +2.32710012223911985414e+23
  +1.93199940428497911022e+23
  +1.60397984705790515085e+23
  +1.33165224795710819402e+23
  +1.10556109089642586833e+23
  +9.17856240305366577971e+22
  +7.62020375721077112832e+22
  +6.32642703198165128970e+22
</dep>
<dep Fmin frequency>
  +3.93167512031802110771e+21
  +3.26414576402978308096e+21
  +8.72112160640568918016e+20
  +7.24042870767930441728e+20
  +6.01113066558052761600e+20
  +4.99054657793134559232e+20
  +4.14323938548090863616e+20
  +8.56547721296785571840e+20
  +7.11120967923245383680e+20
  +5.90385128580771741696e+20
  +6.11641378547317342208e+20
  +5.07795414755626844160e+20
  +1.35672408008475869184e+20
  +1.12637616666788233216e+20
  +2.32860087470963425280e+20
  +7.76367436427399659520e+19
  +6.44553873345661173760e+19
  +1.66280153413999624192e+20
  +4.44265982619107000320e+19
  +3.68837420865931427840e+19
  +9.51516451429312102400e+19
  +2.54225332641490534400e+19
  +2.11062329522015272960e+19
  +4.36337670023623884800e+19
  +1.45477079045928058880e+19
  +1.20777629791183626240e+19
  +1.00271707310831124480e+19
  +2.07295990108962897920e+19
  +1.72100851421159936000e+19
  +1.42881223508057886720e+19
  +4.76371828068012646400e+18
  +3.95492254476775168000e+18
  +8.17620912964292915200e+18
  +2.72597483029332582400e+18
  +5.63555820404192256000e+18
  +1.87890870879712640000e+18
  +1.55990302958361113600e+18
  +3.22489348340959948800e+18
  +1.07518065781500992000e+18
  +2.77378480029924300800e+18
  +7.41080321114105344000e+17
  +6.15257889249455104000e+17
  +5.10797917091648384000e+17
  +1.05603851082601689600e+18
  +8.76749632171406464000e+17
  +9.08333729518295168000e+17
  +6.04323974427839616000e+17
  +2.01469220127152736000e+17
  +4.16551520830296064000e+17
  +1.38864921491169520000e+17
  +2.87127265775960096000e+17
  +2.38385995072681376000e+17
  +7.94636119634384640000e+16
  +1.64324677681441632000e+17
  +5.47711853535022480000e+16
  +4.54720002176653120000e+16
  +1.17373103608011184000e+17
  +3.13420872956239200000e+16
  +2.60207507823113640000e+16
  +5.38402107838041920000e+16
  +1.79350936773991040000e+16
  +4.63342118408356960000e+16
  +3.08292480290382240000e+16
  +2.56028822011481440000e+16
  +8.52062275597663300000e+15
  +7.07397024184073400000e+15
  +1.46708100413257680000e+16
  +1.21878630411208320000e+16
  +4.04798611017078250000e+15
  +8.41507694600707900000e+15
  +2.79011975880775650000e+15
  +2.31640648244846950000e+15
  +1.92312142238333125000e+15
  +1.59660906806690900000e+15
  +4.18467521513665600000e+15
  +3.48536099622339500000e+15
  +9.13638430282509750000e+14
  +7.58518687399268125000e+14
  +6.29735560518317750000e+14
  +5.22817498831788562500e+14
  +1.63489906414945700000e+15
  +3.60357848538802875000e+14
  +2.99175410625462750000e+14
  +2.48380680320484781250e+14
  +2.06210001260517625000e+14
  +4.72826718466851500000e+14
  +4.00447484771203312500e+14
  +1.18000945623185671875e+14
  +9.79664589382152343750e+13
  +8.13334784881799218750e+13
  +2.14664714479118875000e+14
  +1.86116853687911687500e+14
  +4.65420072858017109375e+13
  +3.86399885363705390625e+13
  +1.26402851089709968750e+14
  +1.12840303108038171875e+14
  +1.34497663249417593750e+14
  +9.22323010957970625000e+13
  +1.52404085779211992188e+13
  +1.26528553845579570312e+13
</dep>
<dep Sopt frequency>
  +9.99999929578556212562e-01+j3.14159250986999086328e-04
  +9.99999919486711741357e-01+j3.44789388386674135016e-04
  +9.99999928404472049337e-01+j3.78405933783901879484e-04
  +9.99999913762933734240e-01+j4.15300042142763736926e-04
  +9.99999896127149345837e-01+j4.55791279541778600846e-04
  +9.99999874884784811790e-01+j5.00230361306564581987e-04
  +9.99999849286712927388e-01+j5.49023270393656078955e-04
  +9.99999803578092039125e-01+j6.02529215167308426597e-04
  +9.99999766456460825736e-01+j6.61275057545815132115e-04
  +9.99999721743326297485e-01+j7.25748543082633352716e-04
  +9.99999661713939280716e-01+j7.96508103726494107351e-04
  +9.99999596842844562516e-01+j8.74166632190963212995e-04
  +9.99999539778800849987e-01+j9.59396782400157846146e-04
  +9.99999445661962749199e-01+j1.05293673475263219359e-03
  +9.99999317396758180543e-01+j1.15559668381198495449e-03
  +9.99999195723796030499e-01+j1.26828693960823559762e-03
  +9.99999031278737127160e-01+j1.39192010800665314993e-03
  +9.99998812098525702297e-01+j1.52763041669277217435e-03
  +9.99998594551620545445e-01+j1.67657233174884332839e-03
  +9.99998307093918570310e-01+j1.84005687331196925161e-03
  +9.99997939862309337400e-01+j2.01943662676068273754e-03
  +9.99997543940332356271e-01+j2.21632878946698141931e-03
  +9.99997041668178154872e-01+j2.43241749949803806943e-03
  +9.99996421778817201620e-01+j2.66957435555103270511e-03
  +9.99995707969918767866e-01+j2.92985353575832968565e-03
  +9.99994830236841103499e-01+j3.21550922738718077468e-03
  +9.99993773005264485754e-01+j3.52901554198981884033e-03
  +9.99992484666522241099e-01+j3.87308767694892735339e-03
  +9.99990950808488543444e-01+j4.25070568409351319528e-03
  +9.99989103274180779479e-01+j4.66513993124039513111e-03
  +9.99986892818063632937e-01+j5.11997969475346155488e-03
  +9.99984212374113834443e-01+j5.61916386335510002065e-03
  +9.99980968878548037715e-01+j6.16701535574840781218e-03
  +9.99977094939533572848e-01+j6.76827868003921587908e-03
  +9.99972395937444802350e-01+j7.42815998780048565575e-03
  +9.99966768850679033065e-01+j8.15237353979912475477e-03
  +9.99959973099005305919e-01+j8.94718949372035055045e-03
  +9.99951772752928125243e-01+j9.81948908825228637676e-03
  +9.99941928344082353597e-01+j1.07768241851534090497e-02
  +9.99930031828249687997e-01+j1.18274807591463339274e-02
  +9.99915749073240323064e-01+j1.29805529658999843634e-02
  +9.99898520334675633414e-01+j1.42460181288043673947e-02
  +9.99877768652183029907e-01+j1.56348250751765401045e-02
  +9.99852758849945288944e-01+j1.71589865036231442597e-02
  +9.99822653230406976910e-01+j1.88316830099558504830e-02
  +9.99786385937541655089e-01+j2.06673739769048792070e-02
  +9.99742717204582853618e-01+j2.26819221865223810686e-02
  +9.99690128057477700452e-01+j2.48927271391391098654e-02
  +9.99626755078382167596e-01+j2.73188713006670032268e-02
  +9.99550459636499799565e-01+j2.99813048492197850581e-02
  +9.99458537796890866822e-01+j3.29029090291225387310e-02
  +9.99347846011772067421e-01+j3.61089029092458019266e-02
  +9.99214548524953394271e-01+j3.96268345452099740589e-02
  +9.99053982007647944918e-01+j4.34869087466565884537e-02
  +9.98860646120847017748e-01+j4.77222131825864384624e-02
  +9.98627804081081982268e-01+j5.23689690197941398742e-02
  +9.98347395992162933709e-01+j5.74668145003690428174e-02
  +9.98009794267017635860e-01+j6.30591036021349859997e-02
  +9.97603277886664807639e-01+j6.91932073962597538053e-02
  +9.97113832178164738451e-01+j7.59208527128932969541e-02
  +9.96524644164546336000e-01+j8.32984608064534781668e-02
  +9.95815387649065963949e-01+j9.13874804034620347171e-02
  +9.94961785813585297689e-01+j1.00254750352884308695e-01
  +9.93934580905976861054e-01+j1.09972810625799277684e-01
  +9.92698727304824668494e-01+j1.20620217241476895831e-01
  +9.91212151916937789231e-01+j1.32281782162902317168e-01
  +9.89424493980277541816e-01+j1.45048753560827664577e-01
  +9.87275528359489951136e-01+j1.59018870893261804467e-01
  +9.84693262150950543443e-01+j1.74296240563356824582e-01
  +9.81591776886723721418e-01+j1.90990978179709530727e-01
  +9.77868904447619646803e-01+j2.09218559679612781110e-01
  +9.73403204108925224070e-01+j2.29098673567697003195e-01
  +9.68050952842573697588e-01+j2.50753569666684605899e-01
  +9.61642567440117779221e-01+j2.74305618767058001506e-01
  +9.53978816893857217707e-01+j2.99873931462787346458e-01
  +9.44826956526625960642e-01+j3.27569809466296213429e-01
  +9.33916709275220746633e-01+j3.57490671397930059872e-01
  +9.20936683749163709223e-01+j3.89712232968241145681e-01
  +9.05531672024770584173e-01+j4.24278671347056102192e-01
  +8.87301184775478368749e-01+j4.61190424332544646191e-01
  +8.65800325998289710405e-01+j5.00389592100115576656e-01
  +8.40544122260007076086e-01+j5.41743092742449361410e-01
  +8.11016145547641342795e-01+j5.85023770167543477605e-01
  +7.76683628995216257529e-01+j6.29890895672275408224e-01
  +7.37019663504387745334e-01+j6.75871301068390550881e-01
  +6.91533958165365558735e-01+j7.22343931172554687414e-01
  +6.39812314163533568667e-01+j7.68531178835563988372e-01
  +5.81563608834320344698e-01+j8.13500933545623916565e-01
  +5.16671511331569077718e-01+j8.56183712399594787357e-01
  +4.45245741839703945697e-01+j8.95408414844092948037e-01
  +3.67665453582711687641e-01+j9.29958108970235675095e-01
  +2.84606249340450478957e-01+j9.58644487301752334929e-01
  +1.97042279371459377879e-01+j9.80394991898724144086e-01
  +1.06217560617247727683e-01+j9.94342913594963739854e-01
  +1.35851643265593926418e-02+j9.99907702494534422755e-01
  -7.92810039907540925475e-02+j9.96852292269971074212e-01
  -1.70791156778933556071e-01+j9.85307230572914360955e-01
  -2.59446826266318097964e-01+j9.65757378712693514977e-01
  -3.43935282543417819578e-01+j9.38993355366149140551e-01
  -4.23199121715998827220e-01+j9.06036700900580194151e-01
</dep>
<dep F frequency>
  +1.26528544898685252203e+29
  +1.05046221393189475217e+29
  +8.72112190090172566766e+28
  +7.24042866981314740666e+28
  +6.01113113608253359479e+28
  +4.99054672693419806095e+28
  +4.14323962057092304138e+28
  +3.43979037517771231799e+28
  +2.85577445330287425603e+28
  +2.37091417485209370624e+28
  +1.96837465356429168185e+28
  +1.63417927110400536083e+28
  +1.35672439338330175195e+28
  +1.12637647952629799044e+28
  +9.35137594653206172728e+27
  +7.76367712717148609132e+27
  +6.44554167440525509031e+27
  +5.35120246432000763084e+27
  +4.44266282659698855111e+27
  +3.68837725800503928962e+27
  +3.06215612756466192990e+27
  +2.54225634353282371028e+27
  +2.11062640915828271403e+27
  +1.75227965470662244590e+27
  +1.45477388367621526750e+27
  +1.20777936594504685618e+27
  +1.00272017809160331724e+27
  +8.32476437828288626614e+26
  +6.91137093796835517719e+26
  +5.73794687313429584687e+26
  +4.76374959963856792287e+26
  +3.95495390835498193252e+26
  +3.28347751642110654144e+26
  +2.72600601925118806546e+26
  +2.26318338856750671590e+26
  +1.87893990964459647411e+26
  +1.55993422300246994760e+26
  +1.29509009761804917779e+26
  +1.07521185190726800251e+26
  +8.92665069468082782769e+25
  +7.41111523681063506029e+25
  +6.15289107455959049332e+25
  +5.10829127041043769600e+25
  +4.24104616133846832314e+25
  +3.52104403591029872677e+25
  +2.92328562228739975162e+25
  +2.42701608579893280039e+25
  +2.01500439807746191718e+25
  +1.67294505665536918448e+25
  +1.38896138206308323662e+25
  +1.15319314635388124293e+25
  +9.57454215060617440736e+24
  +7.94948315533567095472e+24
  +6.60033062821117047498e+24
  +5.48024049810273439475e+24
  +4.55032199419547364413e+24
  +3.77828731532064295433e+24
  +3.13733056171162661290e+24
  +2.60519700445257994443e+24
  +2.16341037662355765330e+24
  +1.79663135683411341790e+24
  +1.49212497098269185488e+24
  +1.23931841984046887128e+24
  +1.02943397974333649322e+24
  +8.55184230297155456205e+23
  +7.10519027064341086077e+23
  +5.90415433843074572222e+23
  +4.90703320755004550152e+23
  +4.07920572713725060973e+23
  +3.39192880951612160344e+23
  +2.82133943833547180605e+23
  +2.34762611819191566598e+23
  +1.95434099755061321138e+23
  +1.62782878110929450435e+23
  +1.35675260281000724267e+23
  +1.13170039728386401632e+23
  +9.44858102509207426171e+22
  +7.89738346917196747244e+22
  +6.60955200660372015022e+22
  +5.54037170158644892795e+22
  +4.65271942886041940132e+22
  +3.91577491765098855793e+22
  +3.30395063770649439764e+22
  +2.79600337188687886418e+22
  +2.37429662811882835149e+22
  +2.02418828084286534451e+22
  +1.73352218018470869074e+22
  +1.49220607695789563576e+22
  +1.29186120858584177705e+22
  +1.12553137917827502572e+22
  +9.87441432699717707366e+21
  +8.72796733150819096986e+21
  +7.77616689492109295616e+21
  +6.98596545111079465779e+21
  +6.32992633009625523814e+21
  +5.78527112644810663526e+21
  +5.33308880780491908710e+21
  +4.95767910286870813082e+21
  +4.64600737058340837786e+21
  +4.38725202295003283456e+21
</dep>
<dep S[2,2] frequency>
  +9.25925826827175058042e-01-j2.91319120744540349926e-04
  +9.25925808457487953262e-01-j3.19722369165272284758e-04
  +9.25925786331136757568e-01-j3.50894897241709456150e-04
  +9.25925759679868898289e-01-j3.85106705677283936949e-04
  +9.25925727578324364586e-01-j4.22654119703267869279e-04
  +9.25925688911903632672e-01-j4.63862355620959707341e-04
  +9.25925642338067400594e-01-j5.09088337557066705416e-04
  +9.25925586239722431259e-01-j5.58723788820840363417e-04
  +9.25925518669076463851e-01-j6.13198624627146141736e-04
  +9.25925437280006868868e-01-j6.72984675556178441047e-04
  +9.25925339246602696619e-01-j7.38599773980244309578e-04
  +9.25925221165048051297e-01-j8.10612238825328596838e-04
  +9.25925078935436074445e-01-j8.89645797476637132870e-04
  +9.25924907619422032923e-01-j9.76384987412184197561e-04
  +9.25924701268759253736e-01-j1.07158108428849572352e-03
  +9.25924452718774437798e-01-j1.17605860774229681667e-03
  +9.25924153339612088232e-01-j1.29072246114946996218e-03
  +9.25923792736602413456e-01-j1.41656576703851652503e-03
  +9.25923358389366124577e-01-j1.55467846583489722502e-03
  +9.25922835217112938366e-01-j1.70625675216292869117e-03
  +9.25922205055051183997e-01-j1.87261343010552516568e-03
  +9.25921446023732830355e-01-j2.05518927667457367708e-03
  +9.25920531769441890191e-01-j2.25556551133594121103e-03
  +9.25919430549261068819e-01-j2.47547747882613912787e-03
  +9.25918104129062613517e-01-j2.71682966275947406984e-03
  +9.25916506456182286655e-01-j2.98171215872434277466e-03
  +9.25914582060716528922e-01-j3.27241874777676631722e-03
  +9.25912264129972295557e-01-j3.59146672453015177590e-03
  +9.25909472189285764898e-01-j3.94161864848296961128e-03
  +9.25906109308752722775e-01-j4.32590620288657648485e-03
  +9.25902058739028754886e-01-j4.74765636239132989005e-03
  +9.25897179859568764115e-01-j5.21052008896375970504e-03
  +9.25891303298887580198e-01-j5.71850379516281905057e-03
  +9.25884225057802767722e-01-j6.27600383478835177620e-03
  +9.25875699432170184977e-01-j6.88784430311338222164e-03
  +9.25865430490203533687e-01-j7.55931845226103481250e-03
  +9.25853061809631006085e-01-j8.29623405157427912249e-03
  +9.25838164120075246544e-01-j9.10496304771372944042e-03
  +9.25820220424062201303e-01-j9.99249590419749693371e-03
  +9.25798608083663432389e-01-j1.09665010244286292851e-02
  +9.25772577256010475999e-01-j1.20353896848901988775e-02
  +9.25741224936538875667e-01-j1.32083869246602848835e-02
  +9.25703463719697694501e-01-j1.44956088516874984085e-02
  +9.25657984208420825389e-01-j1.59081468326109018441e-02
  +9.25603209790285541558e-01-j1.74581590275651107880e-02
  +9.25537242243660740471e-01-j1.91589697093428844299e-02
  +9.25457796333810200906e-01-j2.10251767607452025310e-02
  +9.25362121198467058036e-01-j2.30727676659375005586e-02
  +9.25246905895301008371e-01-j2.53192441892098121792e-02
  +9.25108165979552810043e-01-j2.77837557519276037721e-02
  +9.24941107387618255409e-01-j3.04872412548856559777e-02
  +9.24739963210146620476e-01-j3.34525787215089742688e-02
  +9.24497798135218706861e-01-j3.67047416218619082517e-02
  +9.24206274419370421569e-01-j4.02709600321174837623e-02
  +9.23855372196542345975e-01-j4.41808838295329395218e-02
  +9.23433055764698029755e-01-j4.84667438428928801231e-02
  +9.22924876211365985412e-01-j5.31635051761192370390e-02
  +9.22313499386712920547e-01-j5.83090046769047243291e-02
  +9.21578146870052350437e-01-j6.39440615825251634785e-02
  +9.20693936312056204763e-01-j7.01125465588671309414e-02
  +9.19631106545489851456e-01-j7.68613894399774316701e-02
  +9.18354112411703171759e-01-j8.42404997272172689771e-02
  +9.16820574750704331279e-01-j9.23025660528097868784e-02
  +9.14980073033386243075e-01-j1.01102691090553212239e-01
  +9.12772772501472928752e-01-j1.10697806597123929451e-01
  +9.10127885561444749385e-01-j1.21145799315020633036e-01
  +9.06961980072414020171e-01-j1.32504262554873963875e-01
  +9.03177167029900140882e-01-j1.44828771067832373642e-01
  +8.98659229372648749035e-01-j1.58170559765718948819e-01
  +8.93275794957287594400e-01-j1.72573472599752086865e-01
  +8.86874712910011409051e-01-j1.88070040871131660687e-01
  +8.79282865703843174998e-01-j2.04676557203745113078e-01
  +8.70305739753499230105e-01-j2.22387042117308836309e-01
  +8.59728181710806671489e-01-j2.41166067600761091505e-01
  +8.47316876218608072691e-01-j2.60940522007459652087e-01
  +8.32825174041457283458e-01-j2.81590589249582357034e-01
  +8.16000944333427846722e-01-j3.02940484749158800426e-01
  +7.96598073206143064695e-01-j3.24749840479089169065e-01
  +7.74392021888811288299e-01-j3.46707036618780328752e-01
  +7.49199428986825344268e-01-j3.68426173985703431235e-01
  +7.20901051379417623366e-01-j3.89449656077673955767e-01
  +6.89466403365940228021e-01-j4.09258341904417233259e-01
  +6.54977389187514469349e-01-j4.27290762234317611501e-01
  +6.17647272355945631261e-01-j4.42971829770151259709e-01
  +5.77830838923046874456e-01-j4.55749824404720671467e-01
  +5.36021964951395757382e-01-j4.65138431724763101727e-01
  +4.92836226152616851959e-01-j4.70758741019361770519e-01
  +4.48978608391170375125e-01-j4.72375004160410782994e-01
  +4.05199300860226374610e-01-j4.69918174946636901801e-01
  +3.62243171037372690968e-01-j4.63492986713952115352e-01
  +3.20799993390245341551e-01-j4.53367248963995272959e-01
  +2.81462325214817288277e-01-j4.39945350432257464846e-01
  +2.44696155604092968616e-01-j4.23730687264508798506e-01
  +2.10826699628664154806e-01-j4.05283167537628941091e-01
  +1.80038831717620501083e-01-j3.85177855789001988285e-01
  +1.52389410423824256391e-01-j3.63969504965702683741e-01
  +1.27827547630901816600e-01-j3.42165774257420007842e-01
  +1.06218722638375728806e-01-j3.20209969485162060376e-01
  +8.73692562215247492396e-02-j2.98472604275876962632e-01
  +7.10486609063915031115e-02-j2.77250146623066073825e-01
</dep>
<dep S[2,1] frequency>
  +1.02910241134600298765e-07+j3.02523702311637953527e-04
  +1.21986454259637988833e-07+j3.32019383363936699313e-04
  +1.44963819518614112126e-07+j3.64390854827929063127e-04
  +1.72640135890002560824e-07+j3.99918502049487136103e-04
  +2.05976354867620431720e-07+j4.38910047384162874898e-04
  +2.46129945637375094098e-07+j4.81703215452535145336e-04
  +2.94495083510093776785e-07+j5.28668658232338576838e-04
  +3.52751056972120123920e-07+j5.80213165313949699904e-04
  +4.22920574063494855839e-07+j6.36783187112805858926e-04
  +5.07439992492652170084e-07+j6.98868701539108439467e-04
  +6.09243911877949087998e-07+j7.67007457594869003145e-04
  +7.31867065140553043113e-07+j8.41789632626303136430e-04
  +8.79567046668474708130e-07+j9.23862943533430977169e-04
  +1.05747213827417247375e-06+j1.01393825615880709204e-03
  +1.27175936528519400816e-06+j1.11279574137651505669e-03
  +1.52986896457704545798e-06+j1.22129163111700067383e-03
  +1.84076271039702494639e-06+j1.34036563273214255100e-03
  +2.21523506629466108162e-06+j1.47104906577076740247e-03
  +2.66628796518513902004e-06+j1.61447379144393204226e-03
  +3.20958222812888925154e-06+j1.77188201186150333030e-03
  +3.86398129240189519947e-06+j1.94463702357112154517e-03
  +4.65220612307575734058e-06+j2.13423501808513490369e-03
  +5.60162404065759809112e-06+j2.34231803100270856433e-03
  +6.74519884403081067563e-06+j2.57068815108868302388e-03
  +8.12263520390337150719e-06+j2.82132311132714686669e-03
  +9.78175704089483621061e-06+j3.09639339559835552462e-03
  +1.17801677173676893652e-05+j3.39828100730664266205e-03
  +1.41872496436018652590e-05+j3.72960006008900366720e-03
  +1.70865726643237088485e-05+j4.09321936573231286161e-03
  +2.05787947567206177786e-05+j4.49228721068990928533e-03
  +2.47851556237803426035e-05+j4.93025853017561247610e-03
  +2.98516842934544226747e-05+j5.41092470777005968979e-03
  +3.59542665391583202822e-05+j5.93844624882292840967e-03
  +4.33047476662286426633e-05+j6.51738859766482631075e-03
  +5.21582819769097149297e-05+j7.15276139169466682044e-03
  +6.28221832497989640404e-05+j7.85006146965569126528e-03
  +7.56665823055065108480e-05+j8.61531997663483178895e-03
  +9.11372599215986130489e-05+j9.45515393416425722894e-03
  +1.09771098088763826260e-04+j1.03768226697435565764e-02
  +1.32214682349170593303e-04+j1.13882895253681892811e-02
  +1.59246695680914608292e-04+j1.24982892881552089953e-02
  +1.91804873594079408790e-04+j1.37164018063779900164e-02
  +2.31018444929073066187e-04+j1.50531322690600991715e-02
  +2.78247168177894862919e-04+j1.65199986338651662321e-02
  +3.35128294702690819780e-04+j1.81296266824714571997e-02
  +4.03633054659260979806e-04+j1.98958531597022286741e-02
  +4.86134576427113551667e-04+j2.18338374053892378401e-02
  +5.85489524668807441617e-04+j2.39601818069350921969e-02
  +7.05136185648822574196e-04+j2.62930612734101898376e-02
  +8.49212252002577998485e-04+j2.88523617423863676379e-02
  +1.02269617439603691285e-03+j3.16598274569966503522e-02
  +1.23157666638569972782e-03+j3.47392163646439572355e-02
  +1.48305578265698007404e-03+j3.81164624534720067328e-02
  +1.78579194911465113579e-03+j4.18198431102758463873e-02
  +2.15019041128221895937e-03+j4.58801485922073065682e-02
  +2.58874978281282497675e-03+j5.03308493753118410541e-02
  +3.11647470358088467951e-03+j5.52082553752007570980e-02
  +3.75136602149012295115e-03+j6.05516587029395481068e-02
  +4.51500132725313370330e-03+j6.64034485664684315243e-02
  +5.43321998363348757782e-03+j7.28091829649774036071e-02
  +6.53692781814475040031e-03+j7.98175967261304242228e-02
  +7.86303711092317669795e-03+j8.74805189474948813322e-02
  +9.45555698965256340160e-03+j9.58526647471485970797e-02
  +1.13668472345598275258e-02+j1.04991256132497573494e-01
  +1.36590439407777482911e-02+j1.14955414543167211416e-01
  +1.64056573015765559675e-02+j1.25805253134829153616e-01
  +1.96933283863392066815e-02+j1.37600580345446033004e-01
  +2.36237111612570757635e-02+j1.50399108416595123083e-01
  +2.83154156514794710930e-02+j1.64254042833631153098e-01
  +3.39059052366621205277e-02+j1.79210913853588782452e-01
  +4.05531827472953992908e-02+j1.95303503981559878344e-01
  +4.84370240767783150071e-02+j2.12548732480812296863e-01
  +5.77594241021350124354e-02+j2.30940389891051506277e-01
  +6.87438113003158435266e-02+j2.50441685585405804382e-01
  +8.16324746960606917323e-02+j2.70976695930823574532e-01
  +9.66815500338710082096e-02+j2.92420996528412413529e-01
  +1.14152865499901196022e-01+j3.14592041854895754227e-01
  +1.34302000901312806880e-01+j3.37240218959054094405e-01
  +1.57362131115464737308e-01+j3.60041922642579725888e-01
  +1.83523669898297048242e-01+j3.82596411446692041824e-01
  +2.12910446644450634945e-01+j4.04428489003738400598e-01
  +2.45554119581522900528e-01+j4.24999047362279558371e-01
  +2.81369634305272897645e-01+j4.43725022320252904251e-01
  +3.20135524861132947372e-01+j4.60009207838234068788e-01
  +3.61483359579912510995e-01+j4.73278663804902244294e-01
  +4.04900267165857696838e-01+j4.83028371406485024231e-01
  +4.49746995918436254236e-01+j4.88864846443183398428e-01
  +4.95291445132245877758e-01+j4.90543273551195646576e-01
  +5.40754572183610449088e-01+j4.87991950906123017617e-01
  +5.85362860845804799936e-01+j4.81319640049104047197e-01
  +6.28400006863976123839e-01+j4.70804450847225886001e-01
  +6.69250662276920316174e-01+j4.56866325448882504290e-01
  +7.07430915334210541623e-01+j4.40028021390066803598e-01
  +7.42603042693309900457e-01+j4.20870981673691801905e-01
  +7.74575059370162799510e-01+j3.99992388703963475116e-01
  +8.03287919944490225177e-01+j3.77968332079768098986e-01
  +8.28794469767909491864e-01+j3.55325996344243832947e-01
  +8.51234403413994145104e-01+j3.32525737542283594816e-01
  +8.70808849308416510482e-01+j3.09952319824949251714e-01
  +8.87757159827977870847e-01+j2.87913613800876266868e-01
</dep>
<dep S[1,2] frequency>
  +1.02910241134600298765e-07+j3.02523702311637899317e-04
  +1.21986454259637962363e-07+j3.32019383363936699313e-04
  +1.44963819518614112126e-07+j3.64390854827929063127e-04
  +1.72640135890002560824e-07+j3.99918502049487136103e-04
  +2.05976354867620431720e-07+j4.38910047384162874898e-04
  +2.46129945637375147037e-07+j4.81703215452535145336e-04
  +2.94495083510093776785e-07+j5.28668658232338468418e-04
  +3.52751056972120123920e-07+j5.80213165313949591484e-04
  +4.22920574063494961718e-07+j6.36783187112805858926e-04
  +5.07439992492652170084e-07+j6.98868701539108439467e-04
  +6.09243911877949087998e-07+j7.67007457594869003145e-04
  +7.31867065140553148992e-07+j8.41789632626303136430e-04
  +8.79567046668474708130e-07+j9.23862943533430977169e-04
  +1.05747213827417247375e-06+j1.01393825615880687520e-03
  +1.27175936528519400816e-06+j1.11279574137651527353e-03
  +1.52986896457704545798e-06+j1.22129163111700067383e-03
  +1.84076271039702452287e-06+j1.34036563273214190048e-03
  +2.21523506629466108162e-06+j1.47104906577076740247e-03
  +2.66628796518513902004e-06+j1.61447379144393204226e-03
  +3.20958222812888925154e-06+j1.77188201186150333030e-03
  +3.86398129240189519947e-06+j1.94463702357112154517e-03
  +4.65220612307575734058e-06+j2.13423501808513447001e-03
  +5.60162404065759809112e-06+j2.34231803100270856433e-03
  +6.74519884403081067563e-06+j2.57068815108868302388e-03
  +8.12263520390337150719e-06+j2.82132311132714686669e-03
  +9.78175704089483621061e-06+j3.09639339559835552462e-03
  +1.17801677173676910593e-05+j3.39828100730664266205e-03
  +1.41872496436018652590e-05+j3.72960006008900366720e-03
  +1.70865726643237088485e-05+j4.09321936573231286161e-03
  +2.05787947567206076142e-05+j4.49228721068990755061e-03
  +2.47851556237803426035e-05+j4.93025853017561247610e-03
  +2.98516842934544158984e-05+j5.41092470777005968979e-03
  +3.59542665391583202822e-05+j5.93844624882292840967e-03
  +4.33047476662286426633e-05+j6.51738859766482631075e-03
  +5.21582819769097149297e-05+j7.15276139169466682044e-03
  +6.28221832497989775930e-05+j7.85006146965569126528e-03
  +7.56665823055065108480e-05+j8.61531997663483178895e-03
  +9.11372599215986266014e-05+j9.45515393416425722894e-03
  +1.09771098088763839813e-04+j1.03768226697435565764e-02
  +1.32214682349170593303e-04+j1.13882895253681910158e-02
  +1.59246695680914608292e-04+j1.24982892881552107300e-02
  +1.91804873594079408790e-04+j1.37164018063779917511e-02
  +2.31018444929073066187e-04+j1.50531322690601009062e-02
  +2.78247168177894862919e-04+j1.65199986338651662321e-02
  +3.35128294702690873990e-04+j1.81296266824714571997e-02
  +4.03633054659260979806e-04+j1.98958531597022356130e-02
  +4.86134576427113551667e-04+j2.18338374053892378401e-02
  +5.85489524668807550037e-04+j2.39601818069350921969e-02
  +7.05136185648822682616e-04+j2.62930612734101933070e-02
  +8.49212252002578106905e-04+j2.88523617423863676379e-02
  +1.02269617439603691285e-03+j3.16598274569966503522e-02
  +1.23157666638569972782e-03+j3.47392163646439641744e-02
  +1.48305578265698007404e-03+j3.81164624534720067328e-02
  +1.78579194911465135263e-03+j4.18198431102758463873e-02
  +2.15019041128221895937e-03+j4.58801485922073065682e-02
  +2.58874978281282541043e-03+j5.03308493753118479930e-02
  +3.11647470358088467951e-03+j5.52082553752007570980e-02
  +3.75136602149012338484e-03+j6.05516587029395481068e-02
  +4.51500132725313370330e-03+j6.64034485664684315243e-02
  +5.43321998363348671046e-03+j7.28091829649774036071e-02
  +6.53692781814475040031e-03+j7.98175967261304381006e-02
  +7.86303711092317669795e-03+j8.74805189474948813322e-02
  +9.45555698965256340160e-03+j9.58526647471485970797e-02
  +1.13668472345598275258e-02+j1.04991256132497573494e-01
  +1.36590439407777482911e-02+j1.14955414543167211416e-01
  +1.64056573015765559675e-02+j1.25805253134829153616e-01
  +1.96933283863392066815e-02+j1.37600580345446033004e-01
  +2.36237111612570757635e-02+j1.50399108416595123083e-01
  +2.83154156514794710930e-02+j1.64254042833631153098e-01
  +3.39059052366621205277e-02+j1.79210913853588782452e-01
  +4.05531827472953992908e-02+j1.95303503981559878344e-01
  +4.84370240767783150071e-02+j2.12548732480812296863e-01
  +5.77594241021350193743e-02+j2.30940389891051534033e-01
  +6.87438113003158435266e-02+j2.50441685585405804382e-01
  +8.16324746960606917323e-02+j2.70976695930823519021e-01
  +9.66815500338709943318e-02+j2.92420996528412413529e-01
  +1.14152865499901196022e-01+j3.14592041854895754227e-01
  +1.34302000901312806880e-01+j3.37240218959054094405e-01
  +1.57362131115464737308e-01+j3.60041922642579670377e-01
  +1.83523669898297048242e-01+j3.82596411446692041824e-01
  +2.12910446644450634945e-01+j4.04428489003738400598e-01
  +2.45554119581522900528e-01+j4.24999047362279558371e-01
  +2.81369634305272897645e-01+j4.43725022320252904251e-01
  +3.20135524861132947372e-01+j4.60009207838234068788e-01
  +3.61483359579912566506e-01+j4.73278663804902244294e-01
  +4.04900267165857696838e-01+j4.83028371406485024231e-01
  +4.49746995918436254236e-01+j4.88864846443183453939e-01
  +4.95291445132245877758e-01+j4.90543273551195591065e-01
  +5.40754572183610449088e-01+j4.87991950906123017617e-01
  +5.85362860845804799936e-01+j4.81319640049104047197e-01
  +6.28400006863976123839e-01+j4.70804450847225886001e-01
  +6.69250662276920316174e-01+j4.56866325448882615312e-01
  +7.07430915334210541623e-01+j4.40028021390066859109e-01
  +7.42603042693309900457e-01+j4.20870981673691801905e-01
  +7.74575059370162799510e-01+j3.99992388703963475116e-01
  +8.03287919944490225177e-01+j3.77968332079768098986e-01
  +8.28794469767909491864e-01+j3.55325996344243832947e-01
  +8.51234403413994145104e-01+j3.32525737542283594816e-01
  +8.70808849308416510482e-01+j3.09952319824949251714e-01
  +8.87757159827977870847e-01+j2.87913613800876266868e-01
</dep>
<dep S[1,1] frequency>
  +9.99999893131672257240e-01-j3.14159229323623999473e-04
  +9.99999873321758769862e-01-j3.44789359647165098537e-04
  +9.99999849460648904120e-01-j3.78405887705926297256e-04
  +9.99999820719858378837e-01-j4.15299982897544437896e-04
  +9.99999786101477772249e-01-j4.55791203052784642778e-04
  +9.99999744403517798474e-01-j5.00230262200709765823e-04
  +9.99999694178182241266e-01-j5.49002068164351699105e-04
  +9.99999633681594390922e-01-j6.02529056287563020630e-04
  +9.99999560813249810387e-01-j6.61274848155606075929e-04
  +9.99999473043084563528e-01-j7.25748266982920490174e-04
  +9.99999367323629484439e-01-j7.96507744425441004642e-04
  +9.99999239984201815368e-01-j8.74166156958084447463e-04
  +9.99999086603451603494e-01-j9.59396133669332277019e-04
  +9.99998901855856270338e-01-j1.05293588139568437129e-03
  +9.99998679326812855983e-01-j1.15559557758330359693e-03
  +9.99998411289920841050e-01-j1.26826438615996192963e-03
  +9.99998088438723509164e-01-j1.39191815706799361212e-03
  +9.99997699563584419025e-01-j1.52762787599272013665e-03
  +9.99997231162497168810e-01-j1.67656893726869909295e-03
  +9.99996666972301273546e-01-j1.84003132001002303944e-03
  +9.99995987404042274704e-01-j2.01943075524693487974e-03
  +9.99995168862871763871e-01-j2.21632098031917862055e-03
  +9.99994182928880870342e-01-j2.43240718604127454522e-03
  +9.99992995370430959312e-01-j2.66956077228440230228e-03
  +9.99991564955749590027e-01-j2.92983553868588365160e-03
  +9.99989842021533958949e-01-j3.21548544927521698714e-03
  +9.99987766748908657455e-01-j3.52898412297228186371e-03
  +9.99985267086908047318e-01-j3.87304621624627283885e-03
  +9.99982256251463752506e-01-j4.25065087979894281472e-03
  +9.99978629713137667778e-01-j4.66506748802413603178e-03
  +9.99974261569160027818e-01-j5.11988385825929131351e-03
  +9.99969000174003141979e-01-j5.61903719653044936982e-03
  +9.99962662877055374899e-01-j6.16684802762380943758e-03
  +9.99955029685115848181e-01-j6.76805738988270604722e-03
  +9.99945835630254409310e-01-j7.42786759906754068955e-03
  +9.99934761578932795878e-01-j8.15198691079629597644e-03
  +9.99921423164528588856e-01-j8.94667843727463101000e-03
  +9.99905357460850519047e-01-j9.81881370086288771115e-03
  +9.99886006936600013617e-01-j1.07759312339644648671e-02
  +9.99862700137560400648e-01-j1.18263006609592748186e-02
  +9.99834628431408023452e-01-j1.29789927223150254598e-02
  +9.99800818015882941658e-01-j1.42439557220079178468e-02
  +9.99760096230265848938e-01-j1.56320988947931810431e-02
  +9.99711051017661112006e-01-j1.71553831967061337638e-02
  +9.99651982155500773430e-01-j1.88269200164126702945e-02
  +9.99580842597084240353e-01-j2.06610782812292545496e-02
  +9.99495167939863704554e-01-j2.26736003825196014150e-02
  +9.99391991647459287940e-01-j2.48817272610479880979e-02
  +9.99267743191826207649e-01-j2.73043328608490488973e-02
  +9.99118125738304829753e-01-j2.99620679632473796428e-02
  +9.98937969357357680167e-01-j3.28775131284195915038e-02
  +9.98721055000291957349e-01-j3.60753400709764304732e-02
  +9.98459903610317778266e-01-j3.95824802401440120625e-02
  +9.98145523745149976236e-01-j4.34282986145172328341e-02
  +9.97767109957514497509e-01-j4.76447696919075902589e-02
  +9.97311682917848107977e-01-j5.22666512743623218329e-02
  +9.96763660884742996871e-01-j5.73316498127084892000e-02
  +9.96104350669990701306e-01-j6.28805686530525820288e-02
  +9.95311344775544615260e-01-j6.89574273574864449188e-02
  +9.94357810016995746771e-01-j7.56095361559381146099e-02
  +9.93211651881157342459e-01-j8.28875042925200644639e-02
  +9.91834538384810615597e-01-j9.08451542916293292018e-02
  +9.90180767741514422653e-01-j9.95393056989620356179e-02
  +9.88195966333341391241e-01-j1.09029381368362862648e-01
  +9.85815608215346084187e-01-j1.19376776640981327460e-01
  +9.82963355879132416604e-01-j1.30643916716938007783e-01
  +9.79549235906493898085e-01-j1.42892910358732388998e-01
  +9.75467684563309345158e-01-j1.56183689509541145934e-01
  +9.70595529900386444488e-01-j1.70571506019540131138e-01
  +9.64790021485004478663e-01-j1.86103641309495998479e-01
  +9.57887079454731837913e-01-j2.02815177211619956932e-01
  +9.49700013458729896954e-01-j2.20723683730074254905e-01
  +9.40019059586243987958e-01-j2.39822712579168900726e-01
  +9.28612195957364439103e-01-j2.60074058107921446403e-01
  +9.15227814738706291209e-01-j2.81398876543547560303e-01
  +8.99599928810979720950e-01-j3.03667957933351495559e-01
  +8.81456639673179553895e-01-j3.26691735772391855797e-01
  +8.60532537525559804159e-01-j3.50210996611325431349e-01
  +8.36585479226247596962e-01-j3.73889688898063510258e-01
  +8.09417727413306975492e-01-j3.97311658040795490088e-01
  +7.78900690023070163548e-01-j4.19983430888497544231e-01
  +7.45001491203802435059e-01-j4.41345164568520853532e-01
  +7.07808456682985531749e-01-j4.60791369332570477368e-01
  +6.67551570336515576187e-01-j4.77701869678166191058e-01
  +6.24613434282398349850e-01-j4.91481689335860116863e-01
  +5.79526645635455195382e-01-j5.01606385691349854206e-01
  +5.32955042700085535046e-01-j5.07667340537151901003e-01
  +4.85658883901128934912e-01-j5.09410322533933923594e-01
  +4.38447175040096503995e-01-j5.06760872094820125078e-01
  +3.92123182967817673905e-01-j4.99831933897146640788e-01
  +3.47430762102794221668e-01-j4.88912314341349851787e-01
  +3.05008927635505744380e-01-j4.74438107196916647457e-01
  +2.65360203306781006205e-01-j4.56952176058915637835e-01
  +2.28835301818485548075e-01-j4.37058327122679945997e-01
  +1.95633592192522909325e-01-j4.15376711346423677096e-01
  +1.65816390826875575959e-01-j3.92505575621297730926e-01
  +1.39328819856401581179e-01-j3.68992380819022580685e-01
  +1.16025811839313430784e-01-j3.45315188986217713740e-01
  +9.56985026412597306056e-02-j3.21873562895139631035e-01
  +7.80983340247921320465e-02-j2.98987214331679185264e-01
</dep>
<indep V1.I 1>
  +0.00000000000000000000e+00
</indep>
<indep _net2.V 1>
  +0.00000000000000000000e+00
</indep>
<indep _net0.V 1>
  +0.00000000000000000000e+00
</indep>
<indep _net1.V 1>
  +0.00000000000000000000e+00
</indep>
