%TF.GenerationSoftware,KiCad,Pcbnew,5.1.10*%
%TF.CreationDate,2021-09-18T22:11:43+02:00*%
%TF.ProjectId,dc_lna,64635f6c-6e61-42e6-9b69-6361645f7063,1.0.3*%
%TF.SameCoordinates,Original*%
%TF.FileFunction,Profile,NP*%
%FSLAX46Y46*%
G04 Gerber Fmt 4.6, Leading zero omitted, Abs format (unit mm)*
G04 Created by KiCad (PCBNEW 5.1.10) date 2021-09-18 22:11:43*
%MOMM*%
%LPD*%
G01*
G04 APERTURE LIST*
%TA.AperFunction,Profile*%
%ADD10C,0.050000*%
%TD*%
G04 APERTURE END LIST*
D10*
X155000000Y-68000000D02*
X96000000Y-68000000D01*
X155000000Y-135000000D02*
X155000000Y-68000000D01*
X96000000Y-135000000D02*
X155000000Y-135000000D01*
X96000000Y-68000000D02*
X96000000Y-135000000D01*
X230000000Y-40000000D02*
X230000000Y-140000000D01*
X80000000Y-40000000D02*
X230000000Y-40000000D01*
X80000000Y-140000000D02*
X80000000Y-40000000D01*
X80000000Y-140000000D02*
X230000000Y-140000000D01*
M02*
