%TF.GenerationSoftware,KiCad,Pcbnew,5.1.10*%
%TF.CreationDate,2021-09-18T22:11:43+02:00*%
%TF.ProjectId,dc_lna,64635f6c-6e61-42e6-9b69-6361645f7063,1.0.3*%
%TF.SameCoordinates,Original*%
%TF.FileFunction,Soldermask,Top*%
%TF.FilePolarity,Negative*%
%FSLAX46Y46*%
G04 Gerber Fmt 4.6, Leading zero omitted, Abs format (unit mm)*
G04 Created by KiCad (PCBNEW 5.1.10) date 2021-09-18 22:11:43*
%MOMM*%
%LPD*%
G01*
G04 APERTURE LIST*
%ADD10C,0.100000*%
%ADD11R,2.290000X3.000000*%
%ADD12O,1.700000X1.700000*%
%ADD13R,1.700000X1.700000*%
%ADD14R,0.800000X0.900000*%
%ADD15R,0.900000X0.800000*%
%ADD16C,1.900000*%
%ADD17C,3.000000*%
%ADD18C,2.500000*%
%ADD19R,1.000000X1.750000*%
%ADD20R,1.000000X3.300000*%
%ADD21R,2.100000X1.000000*%
%ADD22R,3.300000X1.000000*%
%ADD23R,1.000000X1.000000*%
%ADD24O,1.500000X1.500000*%
%ADD25R,2.000000X2.600000*%
%ADD26C,2.000000*%
%ADD27C,2.400000*%
%ADD28R,1.600000X2.000000*%
%ADD29R,2.600000X2.000000*%
%ADD30R,2.000000X1.600000*%
%ADD31R,1.060000X0.650000*%
%ADD32R,2.000000X2.000000*%
%ADD33C,2.390000*%
%ADD34C,3.450000*%
G04 APERTURE END LIST*
D10*
G36*
X204500000Y-91000000D02*
G01*
X165500000Y-91000000D01*
X165500000Y-90000000D01*
X204500000Y-90000000D01*
X204500000Y-91000000D01*
G37*
X204500000Y-91000000D02*
X165500000Y-91000000D01*
X165500000Y-90000000D01*
X204500000Y-90000000D01*
X204500000Y-91000000D01*
G36*
X204500000Y-91000000D02*
G01*
X203500000Y-91000000D01*
X203500000Y-65000000D01*
X204500000Y-65000000D01*
X204500000Y-91000000D01*
G37*
X204500000Y-91000000D02*
X203500000Y-91000000D01*
X203500000Y-65000000D01*
X204500000Y-65000000D01*
X204500000Y-91000000D01*
G36*
X204500000Y-66000000D02*
G01*
X165500000Y-66000000D01*
X165500000Y-65000000D01*
X204500000Y-65000000D01*
X204500000Y-66000000D01*
G37*
X204500000Y-66000000D02*
X165500000Y-66000000D01*
X165500000Y-65000000D01*
X204500000Y-65000000D01*
X204500000Y-66000000D01*
G36*
X167000000Y-91000000D02*
G01*
X165500000Y-91000000D01*
X165500000Y-65000000D01*
X167000000Y-65000000D01*
X167000000Y-91000000D01*
G37*
X167000000Y-91000000D02*
X165500000Y-91000000D01*
X165500000Y-65000000D01*
X167000000Y-65000000D01*
X167000000Y-91000000D01*
G36*
X230000000Y-140000000D02*
G01*
X80000000Y-140000000D01*
X80000000Y-137000000D01*
X230000000Y-137000000D01*
X230000000Y-140000000D01*
G37*
X230000000Y-140000000D02*
X80000000Y-140000000D01*
X80000000Y-137000000D01*
X230000000Y-137000000D01*
X230000000Y-140000000D01*
G36*
X230000000Y-43000000D02*
G01*
X80000000Y-43000000D01*
X80000000Y-40000000D01*
X230000000Y-40000000D01*
X230000000Y-43000000D01*
G37*
X230000000Y-43000000D02*
X80000000Y-43000000D01*
X80000000Y-40000000D01*
X230000000Y-40000000D01*
X230000000Y-43000000D01*
%TO.C,R18*%
G36*
G01*
X207850000Y-117625000D02*
X207850000Y-116375000D01*
G75*
G02*
X208100000Y-116125000I250000J0D01*
G01*
X208900000Y-116125000D01*
G75*
G02*
X209150000Y-116375000I0J-250000D01*
G01*
X209150000Y-117625000D01*
G75*
G02*
X208900000Y-117875000I-250000J0D01*
G01*
X208100000Y-117875000D01*
G75*
G02*
X207850000Y-117625000I0J250000D01*
G01*
G37*
G36*
G01*
X204750000Y-117625000D02*
X204750000Y-116375000D01*
G75*
G02*
X205000000Y-116125000I250000J0D01*
G01*
X205800000Y-116125000D01*
G75*
G02*
X206050000Y-116375000I0J-250000D01*
G01*
X206050000Y-117625000D01*
G75*
G02*
X205800000Y-117875000I-250000J0D01*
G01*
X205000000Y-117875000D01*
G75*
G02*
X204750000Y-117625000I0J250000D01*
G01*
G37*
%TD*%
%TO.C,C14*%
G36*
G01*
X224450000Y-117050000D02*
X224450000Y-115950000D01*
G75*
G02*
X224700000Y-115700000I250000J0D01*
G01*
X227700000Y-115700000D01*
G75*
G02*
X227950000Y-115950000I0J-250000D01*
G01*
X227950000Y-117050000D01*
G75*
G02*
X227700000Y-117300000I-250000J0D01*
G01*
X224700000Y-117300000D01*
G75*
G02*
X224450000Y-117050000I0J250000D01*
G01*
G37*
G36*
G01*
X219050000Y-117050000D02*
X219050000Y-115950000D01*
G75*
G02*
X219300000Y-115700000I250000J0D01*
G01*
X222300000Y-115700000D01*
G75*
G02*
X222550000Y-115950000I0J-250000D01*
G01*
X222550000Y-117050000D01*
G75*
G02*
X222300000Y-117300000I-250000J0D01*
G01*
X219300000Y-117300000D01*
G75*
G02*
X219050000Y-117050000I0J250000D01*
G01*
G37*
%TD*%
%TO.C,C13*%
G36*
G01*
X199950000Y-119950000D02*
X201050000Y-119950000D01*
G75*
G02*
X201300000Y-120200000I0J-250000D01*
G01*
X201300000Y-123200000D01*
G75*
G02*
X201050000Y-123450000I-250000J0D01*
G01*
X199950000Y-123450000D01*
G75*
G02*
X199700000Y-123200000I0J250000D01*
G01*
X199700000Y-120200000D01*
G75*
G02*
X199950000Y-119950000I250000J0D01*
G01*
G37*
G36*
G01*
X199950000Y-114550000D02*
X201050000Y-114550000D01*
G75*
G02*
X201300000Y-114800000I0J-250000D01*
G01*
X201300000Y-117800000D01*
G75*
G02*
X201050000Y-118050000I-250000J0D01*
G01*
X199950000Y-118050000D01*
G75*
G02*
X199700000Y-117800000I0J250000D01*
G01*
X199700000Y-114800000D01*
G75*
G02*
X199950000Y-114550000I250000J0D01*
G01*
G37*
%TD*%
D11*
%TO.C,U1*%
X190500000Y-73500000D03*
G36*
G01*
X192000000Y-71745000D02*
X192000000Y-71445000D01*
G75*
G02*
X192150000Y-71295000I150000J0D01*
G01*
X193800000Y-71295000D01*
G75*
G02*
X193950000Y-71445000I0J-150000D01*
G01*
X193950000Y-71745000D01*
G75*
G02*
X193800000Y-71895000I-150000J0D01*
G01*
X192150000Y-71895000D01*
G75*
G02*
X192000000Y-71745000I0J150000D01*
G01*
G37*
G36*
G01*
X192000000Y-73015000D02*
X192000000Y-72715000D01*
G75*
G02*
X192150000Y-72565000I150000J0D01*
G01*
X193800000Y-72565000D01*
G75*
G02*
X193950000Y-72715000I0J-150000D01*
G01*
X193950000Y-73015000D01*
G75*
G02*
X193800000Y-73165000I-150000J0D01*
G01*
X192150000Y-73165000D01*
G75*
G02*
X192000000Y-73015000I0J150000D01*
G01*
G37*
G36*
G01*
X192000000Y-74285000D02*
X192000000Y-73985000D01*
G75*
G02*
X192150000Y-73835000I150000J0D01*
G01*
X193800000Y-73835000D01*
G75*
G02*
X193950000Y-73985000I0J-150000D01*
G01*
X193950000Y-74285000D01*
G75*
G02*
X193800000Y-74435000I-150000J0D01*
G01*
X192150000Y-74435000D01*
G75*
G02*
X192000000Y-74285000I0J150000D01*
G01*
G37*
G36*
G01*
X192000000Y-75555000D02*
X192000000Y-75255000D01*
G75*
G02*
X192150000Y-75105000I150000J0D01*
G01*
X193800000Y-75105000D01*
G75*
G02*
X193950000Y-75255000I0J-150000D01*
G01*
X193950000Y-75555000D01*
G75*
G02*
X193800000Y-75705000I-150000J0D01*
G01*
X192150000Y-75705000D01*
G75*
G02*
X192000000Y-75555000I0J150000D01*
G01*
G37*
G36*
G01*
X187050000Y-75555000D02*
X187050000Y-75255000D01*
G75*
G02*
X187200000Y-75105000I150000J0D01*
G01*
X188850000Y-75105000D01*
G75*
G02*
X189000000Y-75255000I0J-150000D01*
G01*
X189000000Y-75555000D01*
G75*
G02*
X188850000Y-75705000I-150000J0D01*
G01*
X187200000Y-75705000D01*
G75*
G02*
X187050000Y-75555000I0J150000D01*
G01*
G37*
G36*
G01*
X187050000Y-74285000D02*
X187050000Y-73985000D01*
G75*
G02*
X187200000Y-73835000I150000J0D01*
G01*
X188850000Y-73835000D01*
G75*
G02*
X189000000Y-73985000I0J-150000D01*
G01*
X189000000Y-74285000D01*
G75*
G02*
X188850000Y-74435000I-150000J0D01*
G01*
X187200000Y-74435000D01*
G75*
G02*
X187050000Y-74285000I0J150000D01*
G01*
G37*
G36*
G01*
X187050000Y-73015000D02*
X187050000Y-72715000D01*
G75*
G02*
X187200000Y-72565000I150000J0D01*
G01*
X188850000Y-72565000D01*
G75*
G02*
X189000000Y-72715000I0J-150000D01*
G01*
X189000000Y-73015000D01*
G75*
G02*
X188850000Y-73165000I-150000J0D01*
G01*
X187200000Y-73165000D01*
G75*
G02*
X187050000Y-73015000I0J150000D01*
G01*
G37*
G36*
G01*
X187050000Y-71745000D02*
X187050000Y-71445000D01*
G75*
G02*
X187200000Y-71295000I150000J0D01*
G01*
X188850000Y-71295000D01*
G75*
G02*
X189000000Y-71445000I0J-150000D01*
G01*
X189000000Y-71745000D01*
G75*
G02*
X188850000Y-71895000I-150000J0D01*
G01*
X187200000Y-71895000D01*
G75*
G02*
X187050000Y-71745000I0J150000D01*
G01*
G37*
%TD*%
D12*
%TO.C,SW2*%
X126540000Y-65000000D03*
D13*
X124000000Y-65000000D03*
%TD*%
%TO.C,R17*%
G36*
G01*
X182625003Y-55600000D02*
X181374997Y-55600000D01*
G75*
G02*
X181125000Y-55350003I0J249997D01*
G01*
X181125000Y-54724997D01*
G75*
G02*
X181374997Y-54475000I249997J0D01*
G01*
X182625003Y-54475000D01*
G75*
G02*
X182875000Y-54724997I0J-249997D01*
G01*
X182875000Y-55350003D01*
G75*
G02*
X182625003Y-55600000I-249997J0D01*
G01*
G37*
G36*
G01*
X182625003Y-58525000D02*
X181374997Y-58525000D01*
G75*
G02*
X181125000Y-58275003I0J249997D01*
G01*
X181125000Y-57649997D01*
G75*
G02*
X181374997Y-57400000I249997J0D01*
G01*
X182625003Y-57400000D01*
G75*
G02*
X182875000Y-57649997I0J-249997D01*
G01*
X182875000Y-58275003D01*
G75*
G02*
X182625003Y-58525000I-249997J0D01*
G01*
G37*
%TD*%
D14*
%TO.C,Q4*%
X188500000Y-50500000D03*
X189450000Y-52500000D03*
X187550000Y-52500000D03*
%TD*%
%TO.C,Q3*%
X183500000Y-52500000D03*
X182550000Y-50500000D03*
X184450000Y-50500000D03*
%TD*%
D15*
%TO.C,Q2*%
X190500000Y-57000000D03*
X188500000Y-57950000D03*
X188500000Y-56050000D03*
%TD*%
%TO.C,Q1*%
X174500000Y-57000000D03*
X172500000Y-57950000D03*
X172500000Y-56050000D03*
%TD*%
%TO.C,R16*%
G36*
G01*
X198887500Y-108575001D02*
X198887500Y-106424999D01*
G75*
G02*
X199137499Y-106175000I249999J0D01*
G01*
X199862501Y-106175000D01*
G75*
G02*
X200112500Y-106424999I0J-249999D01*
G01*
X200112500Y-108575001D01*
G75*
G02*
X199862501Y-108825000I-249999J0D01*
G01*
X199137499Y-108825000D01*
G75*
G02*
X198887500Y-108575001I0J249999D01*
G01*
G37*
G36*
G01*
X194262500Y-108575001D02*
X194262500Y-106424999D01*
G75*
G02*
X194512499Y-106175000I249999J0D01*
G01*
X195237501Y-106175000D01*
G75*
G02*
X195487500Y-106424999I0J-249999D01*
G01*
X195487500Y-108575001D01*
G75*
G02*
X195237501Y-108825000I-249999J0D01*
G01*
X194512499Y-108825000D01*
G75*
G02*
X194262500Y-108575001I0J249999D01*
G01*
G37*
%TD*%
%TO.C,R15*%
G36*
G01*
X194374997Y-123400000D02*
X195625003Y-123400000D01*
G75*
G02*
X195875000Y-123649997I0J-249997D01*
G01*
X195875000Y-124275003D01*
G75*
G02*
X195625003Y-124525000I-249997J0D01*
G01*
X194374997Y-124525000D01*
G75*
G02*
X194125000Y-124275003I0J249997D01*
G01*
X194125000Y-123649997D01*
G75*
G02*
X194374997Y-123400000I249997J0D01*
G01*
G37*
G36*
G01*
X194374997Y-120475000D02*
X195625003Y-120475000D01*
G75*
G02*
X195875000Y-120724997I0J-249997D01*
G01*
X195875000Y-121350003D01*
G75*
G02*
X195625003Y-121600000I-249997J0D01*
G01*
X194374997Y-121600000D01*
G75*
G02*
X194125000Y-121350003I0J249997D01*
G01*
X194125000Y-120724997D01*
G75*
G02*
X194374997Y-120475000I249997J0D01*
G01*
G37*
%TD*%
%TO.C,R14*%
G36*
G01*
X176100000Y-76374997D02*
X176100000Y-77625003D01*
G75*
G02*
X175850003Y-77875000I-249997J0D01*
G01*
X175224997Y-77875000D01*
G75*
G02*
X174975000Y-77625003I0J249997D01*
G01*
X174975000Y-76374997D01*
G75*
G02*
X175224997Y-76125000I249997J0D01*
G01*
X175850003Y-76125000D01*
G75*
G02*
X176100000Y-76374997I0J-249997D01*
G01*
G37*
G36*
G01*
X179025000Y-76374997D02*
X179025000Y-77625003D01*
G75*
G02*
X178775003Y-77875000I-249997J0D01*
G01*
X178149997Y-77875000D01*
G75*
G02*
X177900000Y-77625003I0J249997D01*
G01*
X177900000Y-76374997D01*
G75*
G02*
X178149997Y-76125000I249997J0D01*
G01*
X178775003Y-76125000D01*
G75*
G02*
X179025000Y-76374997I0J-249997D01*
G01*
G37*
%TD*%
%TO.C,R13*%
G36*
G01*
X185625003Y-72100000D02*
X184374997Y-72100000D01*
G75*
G02*
X184125000Y-71850003I0J249997D01*
G01*
X184125000Y-71224997D01*
G75*
G02*
X184374997Y-70975000I249997J0D01*
G01*
X185625003Y-70975000D01*
G75*
G02*
X185875000Y-71224997I0J-249997D01*
G01*
X185875000Y-71850003D01*
G75*
G02*
X185625003Y-72100000I-249997J0D01*
G01*
G37*
G36*
G01*
X185625003Y-75025000D02*
X184374997Y-75025000D01*
G75*
G02*
X184125000Y-74775003I0J249997D01*
G01*
X184125000Y-74149997D01*
G75*
G02*
X184374997Y-73900000I249997J0D01*
G01*
X185625003Y-73900000D01*
G75*
G02*
X185875000Y-74149997I0J-249997D01*
G01*
X185875000Y-74775003D01*
G75*
G02*
X185625003Y-75025000I-249997J0D01*
G01*
G37*
%TD*%
%TO.C,R11*%
G36*
G01*
X218650000Y-103074999D02*
X218650000Y-105925001D01*
G75*
G02*
X218400001Y-106175000I-249999J0D01*
G01*
X217674999Y-106175000D01*
G75*
G02*
X217425000Y-105925001I0J249999D01*
G01*
X217425000Y-103074999D01*
G75*
G02*
X217674999Y-102825000I249999J0D01*
G01*
X218400001Y-102825000D01*
G75*
G02*
X218650000Y-103074999I0J-249999D01*
G01*
G37*
G36*
G01*
X224575000Y-103074999D02*
X224575000Y-105925001D01*
G75*
G02*
X224325001Y-106175000I-249999J0D01*
G01*
X223599999Y-106175000D01*
G75*
G02*
X223350000Y-105925001I0J249999D01*
G01*
X223350000Y-103074999D01*
G75*
G02*
X223599999Y-102825000I249999J0D01*
G01*
X224325001Y-102825000D01*
G75*
G02*
X224575000Y-103074999I0J-249999D01*
G01*
G37*
%TD*%
D16*
%TO.C,SW1*%
X228700000Y-124960000D03*
X228700000Y-130040000D03*
D17*
X212190000Y-122810000D03*
X212190000Y-127500000D03*
X212190000Y-132190000D03*
X216000000Y-132190000D03*
X216000000Y-122810000D03*
X216000000Y-127500000D03*
%TD*%
%TO.C,J2*%
X228030000Y-47470000D03*
X228030000Y-57530000D03*
X217970000Y-57530000D03*
X217970000Y-47470000D03*
D18*
X223000000Y-52500000D03*
%TD*%
D17*
%TO.C,J1*%
X81970000Y-110530000D03*
X81970000Y-100470000D03*
X92030000Y-100470000D03*
X92030000Y-110530000D03*
D18*
X87000000Y-105500000D03*
%TD*%
D19*
%TO.C,J3*%
X203950000Y-89225000D03*
X166050000Y-89225000D03*
D20*
X203950000Y-84000000D03*
X166050000Y-84000000D03*
X203950000Y-78000000D03*
X166050000Y-78000000D03*
X203950000Y-72000000D03*
X166050000Y-72000000D03*
D19*
X203950000Y-66775000D03*
X166050000Y-66775000D03*
D21*
X202400000Y-90600000D03*
X202400000Y-65400000D03*
D22*
X197000000Y-90600000D03*
X197000000Y-65400000D03*
X191000000Y-90600000D03*
X191000000Y-65400000D03*
X185000000Y-90600000D03*
X185000000Y-65400000D03*
X179000000Y-90600000D03*
X179000000Y-65400000D03*
X173000000Y-90600000D03*
X173000000Y-65400000D03*
D21*
X167600000Y-90600000D03*
X167600000Y-65400000D03*
D23*
X166050000Y-90600000D03*
X203950000Y-90600000D03*
X203950000Y-65400000D03*
X166050000Y-65400000D03*
%TD*%
%TO.C,R3*%
G36*
G01*
X136900000Y-63625001D02*
X136900000Y-62374999D01*
G75*
G02*
X137149999Y-62125000I249999J0D01*
G01*
X137950001Y-62125000D01*
G75*
G02*
X138200000Y-62374999I0J-249999D01*
G01*
X138200000Y-63625001D01*
G75*
G02*
X137950001Y-63875000I-249999J0D01*
G01*
X137149999Y-63875000D01*
G75*
G02*
X136900000Y-63625001I0J249999D01*
G01*
G37*
G36*
G01*
X133800000Y-63625001D02*
X133800000Y-62374999D01*
G75*
G02*
X134049999Y-62125000I249999J0D01*
G01*
X134850001Y-62125000D01*
G75*
G02*
X135100000Y-62374999I0J-249999D01*
G01*
X135100000Y-63625001D01*
G75*
G02*
X134850001Y-63875000I-249999J0D01*
G01*
X134049999Y-63875000D01*
G75*
G02*
X133800000Y-63625001I0J249999D01*
G01*
G37*
%TD*%
%TO.C,R2*%
G36*
G01*
X136900000Y-57625001D02*
X136900000Y-56374999D01*
G75*
G02*
X137149999Y-56125000I249999J0D01*
G01*
X137950001Y-56125000D01*
G75*
G02*
X138200000Y-56374999I0J-249999D01*
G01*
X138200000Y-57625001D01*
G75*
G02*
X137950001Y-57875000I-249999J0D01*
G01*
X137149999Y-57875000D01*
G75*
G02*
X136900000Y-57625001I0J249999D01*
G01*
G37*
G36*
G01*
X133800000Y-57625001D02*
X133800000Y-56374999D01*
G75*
G02*
X134049999Y-56125000I249999J0D01*
G01*
X134850001Y-56125000D01*
G75*
G02*
X135100000Y-56374999I0J-249999D01*
G01*
X135100000Y-57625001D01*
G75*
G02*
X134850001Y-57875000I-249999J0D01*
G01*
X134049999Y-57875000D01*
G75*
G02*
X133800000Y-57625001I0J249999D01*
G01*
G37*
%TD*%
%TO.C,R1*%
G36*
G01*
X136900000Y-52625001D02*
X136900000Y-51374999D01*
G75*
G02*
X137149999Y-51125000I249999J0D01*
G01*
X137950001Y-51125000D01*
G75*
G02*
X138200000Y-51374999I0J-249999D01*
G01*
X138200000Y-52625001D01*
G75*
G02*
X137950001Y-52875000I-249999J0D01*
G01*
X137149999Y-52875000D01*
G75*
G02*
X136900000Y-52625001I0J249999D01*
G01*
G37*
G36*
G01*
X133800000Y-52625001D02*
X133800000Y-51374999D01*
G75*
G02*
X134049999Y-51125000I249999J0D01*
G01*
X134850001Y-51125000D01*
G75*
G02*
X135100000Y-51374999I0J-249999D01*
G01*
X135100000Y-52625001D01*
G75*
G02*
X134850001Y-52875000I-249999J0D01*
G01*
X134049999Y-52875000D01*
G75*
G02*
X133800000Y-52625001I0J249999D01*
G01*
G37*
%TD*%
D24*
%TO.C,SW4*%
X216796051Y-110203949D03*
X215000000Y-109460000D03*
X213203949Y-110203949D03*
X212460000Y-112000000D03*
X213203949Y-113796051D03*
X215000000Y-114540000D03*
X216796051Y-113796051D03*
X217540000Y-112000000D03*
%TD*%
%TO.C,SW3*%
X148796051Y-56796051D03*
X149540000Y-55000000D03*
X148796051Y-53203949D03*
X147000000Y-52460000D03*
X145203949Y-53203949D03*
X144460000Y-55000000D03*
X145203949Y-56796051D03*
X147000000Y-57540000D03*
%TD*%
D25*
%TO.C,C2*%
X151500000Y-65000000D03*
X98750000Y-65000000D03*
%TD*%
%TO.C,R5*%
G36*
G01*
X186100000Y-79374999D02*
X186100000Y-80625001D01*
G75*
G02*
X185850001Y-80875000I-249999J0D01*
G01*
X185049999Y-80875000D01*
G75*
G02*
X184800000Y-80625001I0J249999D01*
G01*
X184800000Y-79374999D01*
G75*
G02*
X185049999Y-79125000I249999J0D01*
G01*
X185850001Y-79125000D01*
G75*
G02*
X186100000Y-79374999I0J-249999D01*
G01*
G37*
G36*
G01*
X189200000Y-79374999D02*
X189200000Y-80625001D01*
G75*
G02*
X188950001Y-80875000I-249999J0D01*
G01*
X188149999Y-80875000D01*
G75*
G02*
X187900000Y-80625001I0J249999D01*
G01*
X187900000Y-79374999D01*
G75*
G02*
X188149999Y-79125000I249999J0D01*
G01*
X188950001Y-79125000D01*
G75*
G02*
X189200000Y-79374999I0J-249999D01*
G01*
G37*
%TD*%
%TO.C,R4*%
G36*
G01*
X187900000Y-85625001D02*
X187900000Y-84374999D01*
G75*
G02*
X188149999Y-84125000I249999J0D01*
G01*
X188950001Y-84125000D01*
G75*
G02*
X189200000Y-84374999I0J-249999D01*
G01*
X189200000Y-85625001D01*
G75*
G02*
X188950001Y-85875000I-249999J0D01*
G01*
X188149999Y-85875000D01*
G75*
G02*
X187900000Y-85625001I0J249999D01*
G01*
G37*
G36*
G01*
X184800000Y-85625001D02*
X184800000Y-84374999D01*
G75*
G02*
X185049999Y-84125000I249999J0D01*
G01*
X185850001Y-84125000D01*
G75*
G02*
X186100000Y-84374999I0J-249999D01*
G01*
X186100000Y-85625001D01*
G75*
G02*
X185850001Y-85875000I-249999J0D01*
G01*
X185049999Y-85875000D01*
G75*
G02*
X184800000Y-85625001I0J249999D01*
G01*
G37*
%TD*%
D26*
%TO.C,C1*%
X87000000Y-80000000D03*
X87000000Y-70000000D03*
%TD*%
D27*
%TO.C,C8*%
X181000000Y-97500000D03*
X181000000Y-125000000D03*
%TD*%
D28*
%TO.C,FL6*%
X223000000Y-68400000D03*
X223000000Y-61600000D03*
D29*
X223000000Y-65000000D03*
%TD*%
D28*
%TO.C,FL5*%
X182000000Y-86600000D03*
X182000000Y-93400000D03*
D29*
X182000000Y-90000000D03*
%TD*%
D30*
%TO.C,FL4*%
X200600000Y-75000000D03*
X207400000Y-75000000D03*
D25*
X204000000Y-75000000D03*
%TD*%
D30*
%TO.C,FL3*%
X169400000Y-75000000D03*
X162600000Y-75000000D03*
D25*
X166000000Y-75000000D03*
%TD*%
D28*
%TO.C,FL2*%
X182000000Y-61600000D03*
X182000000Y-68400000D03*
D29*
X182000000Y-65000000D03*
%TD*%
D28*
%TO.C,FL1*%
X87000000Y-95400000D03*
X87000000Y-88600000D03*
D29*
X87000000Y-92000000D03*
%TD*%
D31*
%TO.C,U2*%
X200400000Y-104450000D03*
X200400000Y-102550000D03*
X202600000Y-102550000D03*
X202600000Y-103500000D03*
X202600000Y-104450000D03*
%TD*%
D32*
%TO.C,TP1*%
X176000000Y-87000000D03*
%TD*%
%TO.C,R12*%
G36*
G01*
X222374999Y-74900000D02*
X223625001Y-74900000D01*
G75*
G02*
X223875000Y-75149999I0J-249999D01*
G01*
X223875000Y-75950001D01*
G75*
G02*
X223625001Y-76200000I-249999J0D01*
G01*
X222374999Y-76200000D01*
G75*
G02*
X222125000Y-75950001I0J249999D01*
G01*
X222125000Y-75149999D01*
G75*
G02*
X222374999Y-74900000I249999J0D01*
G01*
G37*
G36*
G01*
X222374999Y-71800000D02*
X223625001Y-71800000D01*
G75*
G02*
X223875000Y-72049999I0J-249999D01*
G01*
X223875000Y-72850001D01*
G75*
G02*
X223625001Y-73100000I-249999J0D01*
G01*
X222374999Y-73100000D01*
G75*
G02*
X222125000Y-72850001I0J249999D01*
G01*
X222125000Y-72049999D01*
G75*
G02*
X222374999Y-71800000I249999J0D01*
G01*
G37*
%TD*%
%TO.C,R10*%
G36*
G01*
X206100000Y-113874999D02*
X206100000Y-115125001D01*
G75*
G02*
X205850001Y-115375000I-249999J0D01*
G01*
X205049999Y-115375000D01*
G75*
G02*
X204800000Y-115125001I0J249999D01*
G01*
X204800000Y-113874999D01*
G75*
G02*
X205049999Y-113625000I249999J0D01*
G01*
X205850001Y-113625000D01*
G75*
G02*
X206100000Y-113874999I0J-249999D01*
G01*
G37*
G36*
G01*
X209200000Y-113874999D02*
X209200000Y-115125001D01*
G75*
G02*
X208950001Y-115375000I-249999J0D01*
G01*
X208149999Y-115375000D01*
G75*
G02*
X207900000Y-115125001I0J249999D01*
G01*
X207900000Y-113874999D01*
G75*
G02*
X208149999Y-113625000I249999J0D01*
G01*
X208950001Y-113625000D01*
G75*
G02*
X209200000Y-113874999I0J-249999D01*
G01*
G37*
%TD*%
%TO.C,R9*%
G36*
G01*
X207850000Y-112625001D02*
X207850000Y-111374999D01*
G75*
G02*
X208099999Y-111125000I249999J0D01*
G01*
X208900001Y-111125000D01*
G75*
G02*
X209150000Y-111374999I0J-249999D01*
G01*
X209150000Y-112625001D01*
G75*
G02*
X208900001Y-112875000I-249999J0D01*
G01*
X208099999Y-112875000D01*
G75*
G02*
X207850000Y-112625001I0J249999D01*
G01*
G37*
G36*
G01*
X204750000Y-112625001D02*
X204750000Y-111374999D01*
G75*
G02*
X204999999Y-111125000I249999J0D01*
G01*
X205800001Y-111125000D01*
G75*
G02*
X206050000Y-111374999I0J-249999D01*
G01*
X206050000Y-112625001D01*
G75*
G02*
X205800001Y-112875000I-249999J0D01*
G01*
X204999999Y-112875000D01*
G75*
G02*
X204750000Y-112625001I0J249999D01*
G01*
G37*
%TD*%
%TO.C,R8*%
G36*
G01*
X206100000Y-108874999D02*
X206100000Y-110125001D01*
G75*
G02*
X205850001Y-110375000I-249999J0D01*
G01*
X205049999Y-110375000D01*
G75*
G02*
X204800000Y-110125001I0J249999D01*
G01*
X204800000Y-108874999D01*
G75*
G02*
X205049999Y-108625000I249999J0D01*
G01*
X205850001Y-108625000D01*
G75*
G02*
X206100000Y-108874999I0J-249999D01*
G01*
G37*
G36*
G01*
X209200000Y-108874999D02*
X209200000Y-110125001D01*
G75*
G02*
X208950001Y-110375000I-249999J0D01*
G01*
X208149999Y-110375000D01*
G75*
G02*
X207900000Y-110125001I0J249999D01*
G01*
X207900000Y-108874999D01*
G75*
G02*
X208149999Y-108625000I249999J0D01*
G01*
X208950001Y-108625000D01*
G75*
G02*
X209200000Y-108874999I0J-249999D01*
G01*
G37*
%TD*%
%TO.C,R7*%
G36*
G01*
X206100000Y-118874999D02*
X206100000Y-120125001D01*
G75*
G02*
X205850001Y-120375000I-249999J0D01*
G01*
X205049999Y-120375000D01*
G75*
G02*
X204800000Y-120125001I0J249999D01*
G01*
X204800000Y-118874999D01*
G75*
G02*
X205049999Y-118625000I249999J0D01*
G01*
X205850001Y-118625000D01*
G75*
G02*
X206100000Y-118874999I0J-249999D01*
G01*
G37*
G36*
G01*
X209200000Y-118874999D02*
X209200000Y-120125001D01*
G75*
G02*
X208950001Y-120375000I-249999J0D01*
G01*
X208149999Y-120375000D01*
G75*
G02*
X207900000Y-120125001I0J249999D01*
G01*
X207900000Y-118874999D01*
G75*
G02*
X208149999Y-118625000I249999J0D01*
G01*
X208950001Y-118625000D01*
G75*
G02*
X209200000Y-118874999I0J-249999D01*
G01*
G37*
%TD*%
%TO.C,R6*%
G36*
G01*
X183350000Y-130625001D02*
X183350000Y-129374999D01*
G75*
G02*
X183599999Y-129125000I249999J0D01*
G01*
X184400001Y-129125000D01*
G75*
G02*
X184650000Y-129374999I0J-249999D01*
G01*
X184650000Y-130625001D01*
G75*
G02*
X184400001Y-130875000I-249999J0D01*
G01*
X183599999Y-130875000D01*
G75*
G02*
X183350000Y-130625001I0J249999D01*
G01*
G37*
G36*
G01*
X180250000Y-130625001D02*
X180250000Y-129374999D01*
G75*
G02*
X180499999Y-129125000I249999J0D01*
G01*
X181300001Y-129125000D01*
G75*
G02*
X181550000Y-129374999I0J-249999D01*
G01*
X181550000Y-130625001D01*
G75*
G02*
X181300001Y-130875000I-249999J0D01*
G01*
X180499999Y-130875000D01*
G75*
G02*
X180250000Y-130625001I0J249999D01*
G01*
G37*
%TD*%
%TO.C,C12*%
G36*
G01*
X204549999Y-102350000D02*
X207450001Y-102350000D01*
G75*
G02*
X207700000Y-102599999I0J-249999D01*
G01*
X207700000Y-103500001D01*
G75*
G02*
X207450001Y-103750000I-249999J0D01*
G01*
X204549999Y-103750000D01*
G75*
G02*
X204300000Y-103500001I0J249999D01*
G01*
X204300000Y-102599999D01*
G75*
G02*
X204549999Y-102350000I249999J0D01*
G01*
G37*
G36*
G01*
X204549999Y-98250000D02*
X207450001Y-98250000D01*
G75*
G02*
X207700000Y-98499999I0J-249999D01*
G01*
X207700000Y-99400001D01*
G75*
G02*
X207450001Y-99650000I-249999J0D01*
G01*
X204549999Y-99650000D01*
G75*
G02*
X204300000Y-99400001I0J249999D01*
G01*
X204300000Y-98499999D01*
G75*
G02*
X204549999Y-98250000I249999J0D01*
G01*
G37*
%TD*%
%TO.C,C11*%
G36*
G01*
X210049998Y-100150000D02*
X214950002Y-100150000D01*
G75*
G02*
X215200000Y-100399998I0J-249998D01*
G01*
X215200000Y-101875002D01*
G75*
G02*
X214950002Y-102125000I-249998J0D01*
G01*
X210049998Y-102125000D01*
G75*
G02*
X209800000Y-101875002I0J249998D01*
G01*
X209800000Y-100399998D01*
G75*
G02*
X210049998Y-100150000I249998J0D01*
G01*
G37*
G36*
G01*
X210049998Y-94875000D02*
X214950002Y-94875000D01*
G75*
G02*
X215200000Y-95124998I0J-249998D01*
G01*
X215200000Y-96600002D01*
G75*
G02*
X214950002Y-96850000I-249998J0D01*
G01*
X210049998Y-96850000D01*
G75*
G02*
X209800000Y-96600002I0J249998D01*
G01*
X209800000Y-95124998D01*
G75*
G02*
X210049998Y-94875000I249998J0D01*
G01*
G37*
%TD*%
%TO.C,C9*%
G36*
G01*
X195549999Y-103850000D02*
X198450001Y-103850000D01*
G75*
G02*
X198700000Y-104099999I0J-249999D01*
G01*
X198700000Y-105000001D01*
G75*
G02*
X198450001Y-105250000I-249999J0D01*
G01*
X195549999Y-105250000D01*
G75*
G02*
X195300000Y-105000001I0J249999D01*
G01*
X195300000Y-104099999D01*
G75*
G02*
X195549999Y-103850000I249999J0D01*
G01*
G37*
G36*
G01*
X195549999Y-99750000D02*
X198450001Y-99750000D01*
G75*
G02*
X198700000Y-99999999I0J-249999D01*
G01*
X198700000Y-100900001D01*
G75*
G02*
X198450001Y-101150000I-249999J0D01*
G01*
X195549999Y-101150000D01*
G75*
G02*
X195300000Y-100900001I0J249999D01*
G01*
X195300000Y-99999999D01*
G75*
G02*
X195549999Y-99750000I249999J0D01*
G01*
G37*
%TD*%
%TO.C,C7*%
G36*
G01*
X186100000Y-81849997D02*
X186100000Y-83150003D01*
G75*
G02*
X185850003Y-83400000I-249997J0D01*
G01*
X185024997Y-83400000D01*
G75*
G02*
X184775000Y-83150003I0J249997D01*
G01*
X184775000Y-81849997D01*
G75*
G02*
X185024997Y-81600000I249997J0D01*
G01*
X185850003Y-81600000D01*
G75*
G02*
X186100000Y-81849997I0J-249997D01*
G01*
G37*
G36*
G01*
X189225000Y-81849997D02*
X189225000Y-83150003D01*
G75*
G02*
X188975003Y-83400000I-249997J0D01*
G01*
X188149997Y-83400000D01*
G75*
G02*
X187900000Y-83150003I0J249997D01*
G01*
X187900000Y-81849997D01*
G75*
G02*
X188149997Y-81600000I249997J0D01*
G01*
X188975003Y-81600000D01*
G75*
G02*
X189225000Y-81849997I0J-249997D01*
G01*
G37*
%TD*%
%TO.C,C6*%
G36*
G01*
X195549999Y-71850000D02*
X198450001Y-71850000D01*
G75*
G02*
X198700000Y-72099999I0J-249999D01*
G01*
X198700000Y-73000001D01*
G75*
G02*
X198450001Y-73250000I-249999J0D01*
G01*
X195549999Y-73250000D01*
G75*
G02*
X195300000Y-73000001I0J249999D01*
G01*
X195300000Y-72099999D01*
G75*
G02*
X195549999Y-71850000I249999J0D01*
G01*
G37*
G36*
G01*
X195549999Y-67750000D02*
X198450001Y-67750000D01*
G75*
G02*
X198700000Y-67999999I0J-249999D01*
G01*
X198700000Y-68900001D01*
G75*
G02*
X198450001Y-69150000I-249999J0D01*
G01*
X195549999Y-69150000D01*
G75*
G02*
X195300000Y-68900001I0J249999D01*
G01*
X195300000Y-67999999D01*
G75*
G02*
X195549999Y-67750000I249999J0D01*
G01*
G37*
%TD*%
%TO.C,C5*%
G36*
G01*
X201450002Y-78850000D02*
X196549998Y-78850000D01*
G75*
G02*
X196300000Y-78600002I0J249998D01*
G01*
X196300000Y-77124998D01*
G75*
G02*
X196549998Y-76875000I249998J0D01*
G01*
X201450002Y-76875000D01*
G75*
G02*
X201700000Y-77124998I0J-249998D01*
G01*
X201700000Y-78600002D01*
G75*
G02*
X201450002Y-78850000I-249998J0D01*
G01*
G37*
G36*
G01*
X201450002Y-84125000D02*
X196549998Y-84125000D01*
G75*
G02*
X196300000Y-83875002I0J249998D01*
G01*
X196300000Y-82399998D01*
G75*
G02*
X196549998Y-82150000I249998J0D01*
G01*
X201450002Y-82150000D01*
G75*
G02*
X201700000Y-82399998I0J-249998D01*
G01*
X201700000Y-83875002D01*
G75*
G02*
X201450002Y-84125000I-249998J0D01*
G01*
G37*
%TD*%
%TO.C,C4*%
G36*
G01*
X173450002Y-78350000D02*
X168549998Y-78350000D01*
G75*
G02*
X168300000Y-78100002I0J249998D01*
G01*
X168300000Y-76624998D01*
G75*
G02*
X168549998Y-76375000I249998J0D01*
G01*
X173450002Y-76375000D01*
G75*
G02*
X173700000Y-76624998I0J-249998D01*
G01*
X173700000Y-78100002D01*
G75*
G02*
X173450002Y-78350000I-249998J0D01*
G01*
G37*
G36*
G01*
X173450002Y-83625000D02*
X168549998Y-83625000D01*
G75*
G02*
X168300000Y-83375002I0J249998D01*
G01*
X168300000Y-81899998D01*
G75*
G02*
X168549998Y-81650000I249998J0D01*
G01*
X173450002Y-81650000D01*
G75*
G02*
X173700000Y-81899998I0J-249998D01*
G01*
X173700000Y-83375002D01*
G75*
G02*
X173450002Y-83625000I-249998J0D01*
G01*
G37*
%TD*%
%TO.C,C3*%
G36*
G01*
X182950001Y-77650000D02*
X180049999Y-77650000D01*
G75*
G02*
X179800000Y-77400001I0J249999D01*
G01*
X179800000Y-76499999D01*
G75*
G02*
X180049999Y-76250000I249999J0D01*
G01*
X182950001Y-76250000D01*
G75*
G02*
X183200000Y-76499999I0J-249999D01*
G01*
X183200000Y-77400001D01*
G75*
G02*
X182950001Y-77650000I-249999J0D01*
G01*
G37*
G36*
G01*
X182950001Y-81750000D02*
X180049999Y-81750000D01*
G75*
G02*
X179800000Y-81500001I0J249999D01*
G01*
X179800000Y-80599999D01*
G75*
G02*
X180049999Y-80350000I249999J0D01*
G01*
X182950001Y-80350000D01*
G75*
G02*
X183200000Y-80599999I0J-249999D01*
G01*
X183200000Y-81500001D01*
G75*
G02*
X182950001Y-81750000I-249999J0D01*
G01*
G37*
%TD*%
D33*
%TO.C,BT2*%
X160000000Y-53070000D03*
D34*
X176000000Y-61400000D03*
X160000000Y-116600000D03*
%TD*%
D33*
%TO.C,BT1*%
X207000000Y-124930000D03*
D34*
X191000000Y-116600000D03*
X207000000Y-61400000D03*
%TD*%
M02*
