(module 100DP1T1B1M6QE (layer F.Cu) (tedit 613DE65E)
  (fp_text reference REF** (at -2.5 8) (layer F.SilkS)
    (effects (font (size 1 1) (thickness 0.15)))
  )
  (fp_text value 100DP1T1B1M6QE (at 0 -6.5) (layer F.Fab)
    (effects (font (size 1 1) (thickness 0.15)))
  )
  (fp_line (start -27 -6.5) (end -27 6.5) (layer F.CrtYd) (width 0.12))
  (fp_line (start -27 -6.5) (end 5.5 -6.5) (layer F.CrtYd) (width 0.12))
  (fp_line (start 5.5 6.5) (end -27 6.5) (layer F.CrtYd) (width 0.12))
  (fp_line (start 5.5 -6.5) (end 5.5 6.5) (layer F.CrtYd) (width 0.12))
  (pad 2 thru_hole circle (at 0 0) (size 3 3) (drill 1.9) (layers *.Cu *.Mask))
  (pad 3 thru_hole circle (at 0 4.69) (size 3 3) (drill 1.9) (layers *.Cu *.Mask))
  (pad 1 thru_hole circle (at 0 -4.69) (size 3 3) (drill 1.9) (layers *.Cu *.Mask))
  (pad 4 thru_hole circle (at 3.81 -4.69) (size 3 3) (drill 1.9) (layers *.Cu *.Mask))
  (pad 5 thru_hole circle (at 3.81 0) (size 3 3) (drill 1.9) (layers *.Cu *.Mask))
  (pad 6 thru_hole circle (at 3.81 4.69) (size 3 3) (drill 1.9) (layers *.Cu *.Mask))
  (pad "" np_thru_hole circle (at -12.7 -2.54) (size 1.9 1.9) (drill 1.9) (layers *.Cu *.Mask))
  (pad "" np_thru_hole circle (at -12.7 2.54) (size 1.9 1.9) (drill 1.9) (layers *.Cu *.Mask))
)
