%TF.GenerationSoftware,KiCad,Pcbnew,5.1.10*%
%TF.CreationDate,2021-09-13T10:48:47+02:00*%
%TF.ProjectId,dc_lna,64635f6c-6e61-42e6-9b69-6361645f7063,1.0.1*%
%TF.SameCoordinates,Original*%
%TF.FileFunction,Soldermask,Bot*%
%TF.FilePolarity,Negative*%
%FSLAX46Y46*%
G04 Gerber Fmt 4.6, Leading zero omitted, Abs format (unit mm)*
G04 Created by KiCad (PCBNEW 5.1.10) date 2021-09-13 10:48:47*
%MOMM*%
%LPD*%
G01*
G04 APERTURE LIST*
%ADD10C,0.100000*%
%ADD11O,1.700000X1.700000*%
%ADD12R,1.700000X1.700000*%
%ADD13C,1.900000*%
%ADD14C,3.000000*%
%ADD15C,2.500000*%
%ADD16O,1.500000X1.500000*%
%ADD17R,2.000000X2.600000*%
%ADD18C,2.000000*%
%ADD19C,2.400000*%
%ADD20C,2.390000*%
%ADD21C,3.450000*%
%ADD22R,6.350000X7.340000*%
G04 APERTURE END LIST*
D10*
G36*
X230000000Y-43000000D02*
G01*
X80000000Y-43000000D01*
X80000000Y-40000000D01*
X230000000Y-40000000D01*
X230000000Y-43000000D01*
G37*
X230000000Y-43000000D02*
X80000000Y-43000000D01*
X80000000Y-40000000D01*
X230000000Y-40000000D01*
X230000000Y-43000000D01*
G36*
X230000000Y-140000000D02*
G01*
X80000000Y-140000000D01*
X80000000Y-137000000D01*
X230000000Y-137000000D01*
X230000000Y-140000000D01*
G37*
X230000000Y-140000000D02*
X80000000Y-140000000D01*
X80000000Y-137000000D01*
X230000000Y-137000000D01*
X230000000Y-140000000D01*
D11*
%TO.C,SW2*%
X126540000Y-65000000D03*
D12*
X124000000Y-65000000D03*
%TD*%
D13*
%TO.C,SW1*%
X228700000Y-124960000D03*
X228700000Y-130040000D03*
D14*
X212190000Y-122810000D03*
X212190000Y-127500000D03*
X212190000Y-132190000D03*
X216000000Y-132190000D03*
X216000000Y-122810000D03*
X216000000Y-127500000D03*
%TD*%
%TO.C,J2*%
X228030000Y-47470000D03*
X228030000Y-57530000D03*
X217970000Y-57530000D03*
X217970000Y-47470000D03*
D15*
X223000000Y-52500000D03*
%TD*%
D14*
%TO.C,J1*%
X81970000Y-110530000D03*
X81970000Y-100470000D03*
X92030000Y-100470000D03*
X92030000Y-110530000D03*
D15*
X87000000Y-105500000D03*
%TD*%
D16*
%TO.C,SW4*%
X216796051Y-110203949D03*
X215000000Y-109460000D03*
X213203949Y-110203949D03*
X212460000Y-112000000D03*
X213203949Y-113796051D03*
X215000000Y-114540000D03*
X216796051Y-113796051D03*
X217540000Y-112000000D03*
%TD*%
%TO.C,SW3*%
X148796051Y-56796051D03*
X149540000Y-55000000D03*
X148796051Y-53203949D03*
X147000000Y-52460000D03*
X145203949Y-53203949D03*
X144460000Y-55000000D03*
X145203949Y-56796051D03*
X147000000Y-57540000D03*
%TD*%
D17*
%TO.C,C2*%
X151500000Y-65000000D03*
X98750000Y-65000000D03*
%TD*%
D18*
%TO.C,C1*%
X87000000Y-80000000D03*
X87000000Y-70000000D03*
%TD*%
D19*
%TO.C,C8*%
X181000000Y-97500000D03*
X181000000Y-125000000D03*
%TD*%
D20*
%TO.C,BT2*%
X160000000Y-53070000D03*
D21*
X176000000Y-61400000D03*
X160000000Y-116600000D03*
D22*
X168000000Y-128330000D03*
X168000000Y-49670000D03*
%TD*%
D20*
%TO.C,BT1*%
X207000000Y-124930000D03*
D21*
X191000000Y-116600000D03*
X207000000Y-61400000D03*
D22*
X199000000Y-49670000D03*
X199000000Y-128330000D03*
%TD*%
M02*
